^C:\USERS\김한샘\DOCUMENTS\프로젝트 관리 폴더\PROJECTGITLAB\테스트폴더\TESTSERVER\TESTSERVER\AVATAR.CPP|C:\USERS\김한샘\DOCUMENTS\프로젝트 관리 폴더\PROJECTGITLAB\테스트폴더\TESTSERVER\TESTSERVER\WORLD.CPP
C:\USERS\김한샘\DOCUMENTS\프로젝트 관리 폴더\PROJECTGITLAB\테스트폴더\TESTSERVER\TESTSERVER\X64\RELEASE\VC141.PDB
C:\USERS\김한샘\DOCUMENTS\프로젝트 관리 폴더\PROJECTGITLAB\테스트폴더\TESTSERVER\TESTSERVER\X64\RELEASE\WORLD.OBJ
C:\USERS\김한샘\DOCUMENTS\프로젝트 관리 폴더\PROJECTGITLAB\테스트폴더\TESTSERVER\TESTSERVER\X64\RELEASE\AVATAR.OBJ
^C:\USERS\김한샘\DOCUMENTS\프로젝트 관리 폴더\PROJECTGITLAB\테스트폴더\TESTSERVER\TESTSERVER\SECTOR.CPP|C:\USERS\김한샘\DOCUMENTS\프로젝트 관리 폴더\PROJECTGITLAB\테스트폴더\TESTSERVER\TESTSERVER\WORLD.CPP
C:\USERS\김한샘\DOCUMENTS\프로젝트 관리 폴더\PROJECTGITLAB\테스트폴더\TESTSERVER\TESTSERVER\X64\RELEASE\VC141.PDB
C:\USERS\김한샘\DOCUMENTS\프로젝트 관리 폴더\PROJECTGITLAB\테스트폴더\TESTSERVER\TESTSERVER\X64\RELEASE\WORLD.OBJ
C:\USERS\김한샘\DOCUMENTS\프로젝트 관리 폴더\PROJECTGITLAB\테스트폴더\TESTSERVER\TESTSERVER\X64\RELEASE\SECTOR.OBJ
^C:\USERS\김한샘\DOCUMENTS\프로젝트 관리 폴더\PROJECTGITLAB\테스트폴더\TESTSERVER\TESTSERVER\STDAFX.CPP
C:\USERS\김한샘\DOCUMENTS\프로젝트 관리 폴더\PROJECTGITLAB\테스트폴더\TESTSERVER\TESTSERVER\X64\RELEASE\TESTSERVER.PCH
C:\USERS\김한샘\DOCUMENTS\프로젝트 관리 폴더\PROJECTGITLAB\테스트폴더\TESTSERVER\TESTSERVER\X64\RELEASE\VC141.PDB
C:\USERS\김한샘\DOCUMENTS\프로젝트 관리 폴더\PROJECTGITLAB\테스트폴더\TESTSERVER\TESTSERVER\X64\RELEASE\STDAFX.OBJ
^C:\USERS\김한샘\DOCUMENTS\프로젝트 관리 폴더\PROJECTGITLAB\테스트폴더\TESTSERVER\TESTSERVER\AVATAR.CPP|C:\USERS\김한샘\DOCUMENTS\프로젝트 관리 폴더\PROJECTGITLAB\테스트폴더\TESTSERVER\TESTSERVER\CLIENTMANAGER.CPP|C:\USERS\김한샘\DOCUMENTS\프로젝트 관리 폴더\PROJECTGITLAB\테스트폴더\TESTSERVER\TESTSERVER\CLIENTPROXY.CPP|C:\USERS\김한샘\DOCUMENTS\프로젝트 관리 폴더\PROJECTGITLAB\테스트폴더\TESTSERVER\TESTSERVER\CLOCK.CPP|C:\USERS\김한샘\DOCUMENTS\프로젝트 관리 폴더\PROJECTGITLAB\테스트폴더\TESTSERVER\TESTSERVER\DATABASE.CPP|C:\USERS\김한샘\DOCUMENTS\프로젝트 관리 폴더\PROJECTGITLAB\테스트폴더\TESTSERVER\TESTSERVER\DBEVENT.CPP|C:\USERS\김한샘\DOCUMENTS\프로젝트 관리 폴더\PROJECTGITLAB\테스트폴더\TESTSERVER\TESTSERVER\DBTASKMANAGER.CPP|C:\USERS\김한샘\DOCUMENTS\프로젝트 관리 폴더\PROJECTGITLAB\테스트폴더\TESTSERVER\TESTSERVER\EVENTTASK.CPP|C:\USERS\김한샘\DOCUMENTS\프로젝트 관리 폴더\PROJECTGITLAB\테스트폴더\TESTSERVER\TESTSERVER\EVENTTIMER.CPP|C:\USERS\김한샘\DOCUMENTS\프로젝트 관리 폴더\PROJECTGITLAB\테스트폴더\TESTSERVER\TESTSERVER\GLOBAL.CPP|C:\USERS\김한샘\DOCUMENTS\프로젝트 관리 폴더\PROJECTGITLAB\테스트폴더\TESTSERVER\TESTSERVER\IOCPSERVER.CPP|C:\USERS\김한샘\DOCUMENTS\프로젝트 관리 폴더\PROJECTGITLAB\테스트폴더\TESTSERVER\TESTSERVER\ITEM.CPP|C:\USERS\김한샘\DOCUMENTS\프로젝트 관리 폴더\PROJECTGITLAB\테스트폴더\TESTSERVER\TESTSERVER\MINIDUMP.CPP|C:\USERS\김한샘\DOCUMENTS\프로젝트 관리 폴더\PROJECTGITLAB\테스트폴더\TESTSERVER\TESTSERVER\NPC.CPP|C:\USERS\김한샘\DOCUMENTS\프로젝트 관리 폴더\PROJECTGITLAB\테스트폴더\TESTSERVER\TESTSERVER\NPCMANAGER.CPP|C:\USERS\김한샘\DOCUMENTS\프로젝트 관리 폴더\PROJECTGITLAB\테스트폴더\TESTSERVER\TESTSERVER\OVERLAPPEDEXTENSION.CPP|C:\USERS\김한샘\DOCUMENTS\프로젝트 관리 폴더\PROJECTGITLAB\테스트폴더\TESTSERVER\TESTSERVER\PACKET.CPP|C:\USERS\김한샘\DOCUMENTS\프로젝트 관리 폴더\PROJECTGITLAB\테스트폴더\TESTSERVER\TESTSERVER\PACKETMANAGER.CPP|C:\USERS\김한샘\DOCUMENTS\프로젝트 관리 폴더\PROJECTGITLAB\테스트폴더\TESTSERVER\TESTSERVER\RECYCLEOVERLAPPEDMANAGER.CPP|C:\USERS\김한샘\DOCUMENTS\프로젝트 관리 폴더\PROJECTGITLAB\테스트폴더\TESTSERVER\TESTSERVER\SECTOR.CPP|C:\USERS\김한샘\DOCUMENTS\프로젝트 관리 폴더\PROJECTGITLAB\테스트폴더\TESTSERVER\TESTSERVER\SERVER.CPP|C:\USERS\김한샘\DOCUMENTS\프로젝트 관리 폴더\PROJECTGITLAB\테스트폴더\TESTSERVER\TESTSERVER\SESSION.CPP|C:\USERS\김한샘\DOCUMENTS\프로젝트 관리 폴더\PROJECTGITLAB\테스트폴더\TESTSERVER\TESTSERVER\SESSIONMANAGER.CPP|C:\USERS\김한샘\DOCUMENTS\프로젝트 관리 폴더\PROJECTGITLAB\테스트폴더\TESTSERVER\TESTSERVER\STREAM.CPP|C:\USERS\김한샘\DOCUMENTS\프로젝트 관리 폴더\PROJECTGITLAB\테스트폴더\TESTSERVER\TESTSERVER\TESTSERVER.CPP|C:\USERS\김한샘\DOCUMENTS\프로젝트 관리 폴더\PROJECTGITLAB\테스트폴더\TESTSERVER\TESTSERVER\WORLD.CPP|C:\USERS\김한샘\DOCUMENTS\프로젝트 관리 폴더\PROJECTGITLAB\테스트폴더\TESTSERVER\TESTSERVER\WORLDCONTENTS.CPP
C:\USERS\김한샘\DOCUMENTS\프로젝트 관리 폴더\PROJECTGITLAB\테스트폴더\TESTSERVER\TESTSERVER\X64\RELEASE\VC141.PDB
C:\USERS\김한샘\DOCUMENTS\프로젝트 관리 폴더\PROJECTGITLAB\테스트폴더\TESTSERVER\TESTSERVER\X64\RELEASE\SECTOR.OBJ
C:\USERS\김한샘\DOCUMENTS\프로젝트 관리 폴더\PROJECTGITLAB\테스트폴더\TESTSERVER\TESTSERVER\X64\RELEASE\RECYCLEOVERLAPPEDMANAGER.OBJ
C:\USERS\김한샘\DOCUMENTS\프로젝트 관리 폴더\PROJECTGITLAB\테스트폴더\TESTSERVER\TESTSERVER\X64\RELEASE\PACKETMANAGER.OBJ
C:\USERS\김한샘\DOCUMENTS\프로젝트 관리 폴더\PROJECTGITLAB\테스트폴더\TESTSERVER\TESTSERVER\X64\RELEASE\PACKET.OBJ
C:\USERS\김한샘\DOCUMENTS\프로젝트 관리 폴더\PROJECTGITLAB\테스트폴더\TESTSERVER\TESTSERVER\X64\RELEASE\OVERLAPPEDEXTENSION.OBJ
C:\USERS\김한샘\DOCUMENTS\프로젝트 관리 폴더\PROJECTGITLAB\테스트폴더\TESTSERVER\TESTSERVER\X64\RELEASE\NPCMANAGER.OBJ
C:\USERS\김한샘\DOCUMENTS\프로젝트 관리 폴더\PROJECTGITLAB\테스트폴더\TESTSERVER\TESTSERVER\X64\RELEASE\NPC.OBJ
C:\USERS\김한샘\DOCUMENTS\프로젝트 관리 폴더\PROJECTGITLAB\테스트폴더\TESTSERVER\TESTSERVER\X64\RELEASE\MINIDUMP.OBJ
C:\USERS\김한샘\DOCUMENTS\프로젝트 관리 폴더\PROJECTGITLAB\테스트폴더\TESTSERVER\TESTSERVER\X64\RELEASE\ITEM.OBJ
C:\USERS\김한샘\DOCUMENTS\프로젝트 관리 폴더\PROJECTGITLAB\테스트폴더\TESTSERVER\TESTSERVER\X64\RELEASE\IOCPSERVER.OBJ
C:\USERS\김한샘\DOCUMENTS\프로젝트 관리 폴더\PROJECTGITLAB\테스트폴더\TESTSERVER\TESTSERVER\X64\RELEASE\GLOBAL.OBJ
C:\USERS\김한샘\DOCUMENTS\프로젝트 관리 폴더\PROJECTGITLAB\테스트폴더\TESTSERVER\TESTSERVER\X64\RELEASE\EVENTTIMER.OBJ
C:\USERS\김한샘\DOCUMENTS\프로젝트 관리 폴더\PROJECTGITLAB\테스트폴더\TESTSERVER\TESTSERVER\X64\RELEASE\EVENTTASK.OBJ
C:\USERS\김한샘\DOCUMENTS\프로젝트 관리 폴더\PROJECTGITLAB\테스트폴더\TESTSERVER\TESTSERVER\X64\RELEASE\DATABASE.OBJ
C:\USERS\김한샘\DOCUMENTS\프로젝트 관리 폴더\PROJECTGITLAB\테스트폴더\TESTSERVER\TESTSERVER\X64\RELEASE\DBTASKMANAGER.OBJ
C:\USERS\김한샘\DOCUMENTS\프로젝트 관리 폴더\PROJECTGITLAB\테스트폴더\TESTSERVER\TESTSERVER\X64\RELEASE\DBEVENT.OBJ
C:\USERS\김한샘\DOCUMENTS\프로젝트 관리 폴더\PROJECTGITLAB\테스트폴더\TESTSERVER\TESTSERVER\X64\RELEASE\CLOCK.OBJ
C:\USERS\김한샘\DOCUMENTS\프로젝트 관리 폴더\PROJECTGITLAB\테스트폴더\TESTSERVER\TESTSERVER\X64\RELEASE\CLIENTPROXY.OBJ
C:\USERS\김한샘\DOCUMENTS\프로젝트 관리 폴더\PROJECTGITLAB\테스트폴더\TESTSERVER\TESTSERVER\X64\RELEASE\CLIENTMANAGER.OBJ
C:\USERS\김한샘\DOCUMENTS\프로젝트 관리 폴더\PROJECTGITLAB\테스트폴더\TESTSERVER\TESTSERVER\X64\RELEASE\AVATAR.OBJ
C:\USERS\김한샘\DOCUMENTS\프로젝트 관리 폴더\PROJECTGITLAB\테스트폴더\TESTSERVER\TESTSERVER\X64\RELEASE\WORLDCONTENTS.OBJ
C:\USERS\김한샘\DOCUMENTS\프로젝트 관리 폴더\PROJECTGITLAB\테스트폴더\TESTSERVER\TESTSERVER\X64\RELEASE\WORLD.OBJ
C:\USERS\김한샘\DOCUMENTS\프로젝트 관리 폴더\PROJECTGITLAB\테스트폴더\TESTSERVER\TESTSERVER\X64\RELEASE\TESTSERVER.OBJ
C:\USERS\김한샘\DOCUMENTS\프로젝트 관리 폴더\PROJECTGITLAB\테스트폴더\TESTSERVER\TESTSERVER\X64\RELEASE\STREAM.OBJ
C:\USERS\김한샘\DOCUMENTS\프로젝트 관리 폴더\PROJECTGITLAB\테스트폴더\TESTSERVER\TESTSERVER\X64\RELEASE\SESSIONMANAGER.OBJ
C:\USERS\김한샘\DOCUMENTS\프로젝트 관리 폴더\PROJECTGITLAB\테스트폴더\TESTSERVER\TESTSERVER\X64\RELEASE\SESSION.OBJ
C:\USERS\김한샘\DOCUMENTS\프로젝트 관리 폴더\PROJECTGITLAB\테스트폴더\TESTSERVER\TESTSERVER\X64\RELEASE\SERVER.OBJ
^C:\USERS\김한샘\DOCUMENTS\프로젝트 관리 폴더\PROJECTGITLAB\테스트폴더\TESTSERVER\TESTSERVER\AVATAR.CPP
C:\USERS\김한샘\DOCUMENTS\프로젝트 관리 폴더\PROJECTGITLAB\테스트폴더\TESTSERVER\TESTSERVER\X64\RELEASE\VC141.PDB
^C:\USERS\김한샘\DOCUMENTS\프로젝트 관리 폴더\PROJECTGITLAB\테스트폴더\TESTSERVER\TESTSERVER\CLIENTPROXY.CPP
C:\USERS\김한샘\DOCUMENTS\프로젝트 관리 폴더\PROJECTGITLAB\테스트폴더\TESTSERVER\TESTSERVER\X64\RELEASE\VC141.PDB
^C:\USERS\김한샘\DOCUMENTS\프로젝트 관리 폴더\PROJECTGITLAB\테스트폴더\TESTSERVER\TESTSERVER\CLOCK.CPP
C:\USERS\김한샘\DOCUMENTS\프로젝트 관리 폴더\PROJECTGITLAB\테스트폴더\TESTSERVER\TESTSERVER\X64\RELEASE\VC141.PDB
^C:\USERS\김한샘\DOCUMENTS\프로젝트 관리 폴더\PROJECTGITLAB\테스트폴더\TESTSERVER\TESTSERVER\DBEVENT.CPP
C:\USERS\김한샘\DOCUMENTS\프로젝트 관리 폴더\PROJECTGITLAB\테스트폴더\TESTSERVER\TESTSERVER\X64\RELEASE\VC141.PDB
^C:\USERS\김한샘\DOCUMENTS\프로젝트 관리 폴더\PROJECTGITLAB\테스트폴더\TESTSERVER\TESTSERVER\DBTASKMANAGER.CPP
C:\USERS\김한샘\DOCUMENTS\프로젝트 관리 폴더\PROJECTGITLAB\테스트폴더\TESTSERVER\TESTSERVER\X64\RELEASE\VC141.PDB
^C:\USERS\김한샘\DOCUMENTS\프로젝트 관리 폴더\PROJECTGITLAB\테스트폴더\TESTSERVER\TESTSERVER\DATABASE.CPP
C:\USERS\김한샘\DOCUMENTS\프로젝트 관리 폴더\PROJECTGITLAB\테스트폴더\TESTSERVER\TESTSERVER\X64\RELEASE\VC141.PDB
^C:\USERS\김한샘\DOCUMENTS\프로젝트 관리 폴더\PROJECTGITLAB\테스트폴더\TESTSERVER\TESTSERVER\EVENTTASK.CPP
C:\USERS\김한샘\DOCUMENTS\프로젝트 관리 폴더\PROJECTGITLAB\테스트폴더\TESTSERVER\TESTSERVER\X64\RELEASE\VC141.PDB
^C:\USERS\김한샘\DOCUMENTS\프로젝트 관리 폴더\PROJECTGITLAB\테스트폴더\TESTSERVER\TESTSERVER\EVENTTIMER.CPP
C:\USERS\김한샘\DOCUMENTS\프로젝트 관리 폴더\PROJECTGITLAB\테스트폴더\TESTSERVER\TESTSERVER\X64\RELEASE\VC141.PDB
^C:\USERS\김한샘\DOCUMENTS\프로젝트 관리 폴더\PROJECTGITLAB\테스트폴더\TESTSERVER\TESTSERVER\ITEM.CPP
C:\USERS\김한샘\DOCUMENTS\프로젝트 관리 폴더\PROJECTGITLAB\테스트폴더\TESTSERVER\TESTSERVER\X64\RELEASE\VC141.PDB
^C:\USERS\김한샘\DOCUMENTS\프로젝트 관리 폴더\PROJECTGITLAB\테스트폴더\TESTSERVER\TESTSERVER\MINIDUMP.CPP
C:\USERS\김한샘\DOCUMENTS\프로젝트 관리 폴더\PROJECTGITLAB\테스트폴더\TESTSERVER\TESTSERVER\X64\RELEASE\VC141.PDB
^C:\USERS\김한샘\DOCUMENTS\프로젝트 관리 폴더\PROJECTGITLAB\테스트폴더\TESTSERVER\TESTSERVER\NPC.CPP
C:\USERS\김한샘\DOCUMENTS\프로젝트 관리 폴더\PROJECTGITLAB\테스트폴더\TESTSERVER\TESTSERVER\X64\RELEASE\VC141.PDB
^C:\USERS\김한샘\DOCUMENTS\프로젝트 관리 폴더\PROJECTGITLAB\테스트폴더\TESTSERVER\TESTSERVER\NPCMANAGER.CPP
C:\USERS\김한샘\DOCUMENTS\프로젝트 관리 폴더\PROJECTGITLAB\테스트폴더\TESTSERVER\TESTSERVER\X64\RELEASE\VC141.PDB
^C:\USERS\김한샘\DOCUMENTS\프로젝트 관리 폴더\PROJECTGITLAB\테스트폴더\TESTSERVER\TESTSERVER\OVERLAPPEDEXTENSION.CPP
C:\USERS\김한샘\DOCUMENTS\프로젝트 관리 폴더\PROJECTGITLAB\테스트폴더\TESTSERVER\TESTSERVER\X64\RELEASE\VC141.PDB
^C:\USERS\김한샘\DOCUMENTS\프로젝트 관리 폴더\PROJECTGITLAB\테스트폴더\TESTSERVER\TESTSERVER\PACKET.CPP
C:\USERS\김한샘\DOCUMENTS\프로젝트 관리 폴더\PROJECTGITLAB\테스트폴더\TESTSERVER\TESTSERVER\X64\RELEASE\VC141.PDB
^C:\USERS\김한샘\DOCUMENTS\프로젝트 관리 폴더\PROJECTGITLAB\테스트폴더\TESTSERVER\TESTSERVER\PACKETMANAGER.CPP
C:\USERS\김한샘\DOCUMENTS\프로젝트 관리 폴더\PROJECTGITLAB\테스트폴더\TESTSERVER\TESTSERVER\X64\RELEASE\VC141.PDB
^C:\USERS\김한샘\DOCUMENTS\프로젝트 관리 폴더\PROJECTGITLAB\테스트폴더\TESTSERVER\TESTSERVER\RECYCLEOVERLAPPEDMANAGER.CPP
C:\USERS\김한샘\DOCUMENTS\프로젝트 관리 폴더\PROJECTGITLAB\테스트폴더\TESTSERVER\TESTSERVER\X64\RELEASE\VC141.PDB
^C:\USERS\김한샘\DOCUMENTS\프로젝트 관리 폴더\PROJECTGITLAB\테스트폴더\TESTSERVER\TESTSERVER\SERVER.CPP
C:\USERS\김한샘\DOCUMENTS\프로젝트 관리 폴더\PROJECTGITLAB\테스트폴더\TESTSERVER\TESTSERVER\X64\RELEASE\VC141.PDB
^C:\USERS\김한샘\DOCUMENTS\프로젝트 관리 폴더\PROJECTGITLAB\테스트폴더\TESTSERVER\TESTSERVER\SESSION.CPP
C:\USERS\김한샘\DOCUMENTS\프로젝트 관리 폴더\PROJECTGITLAB\테스트폴더\TESTSERVER\TESTSERVER\X64\RELEASE\VC141.PDB
^C:\USERS\김한샘\DOCUMENTS\프로젝트 관리 폴더\PROJECTGITLAB\테스트폴더\TESTSERVER\TESTSERVER\SESSIONMANAGER.CPP
C:\USERS\김한샘\DOCUMENTS\프로젝트 관리 폴더\PROJECTGITLAB\테스트폴더\TESTSERVER\TESTSERVER\X64\RELEASE\VC141.PDB
^C:\USERS\김한샘\DOCUMENTS\프로젝트 관리 폴더\PROJECTGITLAB\테스트폴더\TESTSERVER\TESTSERVER\STREAM.CPP
C:\USERS\김한샘\DOCUMENTS\프로젝트 관리 폴더\PROJECTGITLAB\테스트폴더\TESTSERVER\TESTSERVER\X64\RELEASE\VC141.PDB
^C:\USERS\김한샘\DOCUMENTS\프로젝트 관리 폴더\PROJECTGITLAB\테스트폴더\TESTSERVER\TESTSERVER\TESTSERVER.CPP
C:\USERS\김한샘\DOCUMENTS\프로젝트 관리 폴더\PROJECTGITLAB\테스트폴더\TESTSERVER\TESTSERVER\X64\RELEASE\VC141.PDB
^C:\USERS\김한샘\DOCUMENTS\프로젝트 관리 폴더\PROJECTGITLAB\테스트폴더\TESTSERVER\TESTSERVER\WORLDCONTENTS.CPP
C:\USERS\김한샘\DOCUMENTS\프로젝트 관리 폴더\PROJECTGITLAB\테스트폴더\TESTSERVER\TESTSERVER\X64\RELEASE\VC141.PDB
^C:\USERS\김한샘\DOCUMENTS\프로젝트 관리 폴더\PROJECTGITLAB\테스트폴더\TESTSERVER\TESTSERVER\CLIENTMANAGER.CPP|C:\USERS\김한샘\DOCUMENTS\프로젝트 관리 폴더\PROJECTGITLAB\테스트폴더\TESTSERVER\TESTSERVER\SECTOR.CPP|C:\USERS\김한샘\DOCUMENTS\프로젝트 관리 폴더\PROJECTGITLAB\테스트폴더\TESTSERVER\TESTSERVER\WORLD.CPP
C:\USERS\김한샘\DOCUMENTS\프로젝트 관리 폴더\PROJECTGITLAB\테스트폴더\TESTSERVER\TESTSERVER\X64\RELEASE\VC141.PDB
C:\USERS\김한샘\DOCUMENTS\프로젝트 관리 폴더\PROJECTGITLAB\테스트폴더\TESTSERVER\TESTSERVER\X64\RELEASE\WORLD.OBJ
C:\USERS\김한샘\DOCUMENTS\프로젝트 관리 폴더\PROJECTGITLAB\테스트폴더\TESTSERVER\TESTSERVER\X64\RELEASE\SECTOR.OBJ
C:\USERS\김한샘\DOCUMENTS\프로젝트 관리 폴더\PROJECTGITLAB\테스트폴더\TESTSERVER\TESTSERVER\X64\RELEASE\CLIENTMANAGER.OBJ
^C:\USERS\김한샘\DOCUMENTS\프로젝트 관리 폴더\PROJECTGITLAB\테스트폴더\TESTSERVER\TESTSERVER\CLIENTMANAGER.CPP
C:\USERS\김한샘\DOCUMENTS\프로젝트 관리 폴더\PROJECTGITLAB\테스트폴더\TESTSERVER\TESTSERVER\X64\RELEASE\VC141.PDB
^C:\USERS\김한샘\DOCUMENTS\프로젝트 관리 폴더\PROJECTGITLAB\테스트폴더\TESTSERVER\TESTSERVER\SECTOR.CPP
C:\USERS\김한샘\DOCUMENTS\프로젝트 관리 폴더\PROJECTGITLAB\테스트폴더\TESTSERVER\TESTSERVER\X64\RELEASE\VC141.PDB
^C:\USERS\김한샘\DOCUMENTS\프로젝트 관리 폴더\PROJECTGITLAB\테스트폴더\TESTSERVER\TESTSERVER\WORLD.CPP
C:\USERS\김한샘\DOCUMENTS\프로젝트 관리 폴더\PROJECTGITLAB\테스트폴더\TESTSERVER\TESTSERVER\X64\RELEASE\VC141.PDB
^C:\USERS\김한샘\DOCUMENTS\프로젝트 관리 폴더\PROJECTGITLAB\테스트폴더\TESTSERVER\TESTSERVER\GLOBAL.CPP
C:\USERS\김한샘\DOCUMENTS\프로젝트 관리 폴더\PROJECTGITLAB\테스트폴더\TESTSERVER\TESTSERVER\X64\RELEASE\VC141.PDB
C:\USERS\김한샘\DOCUMENTS\프로젝트 관리 폴더\PROJECTGITLAB\테스트폴더\TESTSERVER\TESTSERVER\X64\RELEASE\GLOBAL.OBJ
^C:\USERS\김한샘\DOCUMENTS\프로젝트 관리 폴더\PROJECTGITLAB\테스트폴더\TESTSERVER\TESTSERVER\IOCPSERVER.CPP
C:\USERS\김한샘\DOCUMENTS\프로젝트 관리 폴더\PROJECTGITLAB\테스트폴더\TESTSERVER\TESTSERVER\X64\RELEASE\VC141.PDB
C:\USERS\김한샘\DOCUMENTS\프로젝트 관리 폴더\PROJECTGITLAB\테스트폴더\TESTSERVER\TESTSERVER\X64\RELEASE\IOCPSERVER.OBJ
