^C:\USERS\김한샘\DOCUMENTS\프로젝트 관리 폴더\PROJECTGITLAB\SERVER\TESTCLIENTENV\PPLIB\PPLIB\X64\DEBUG\BACKOFFSPINLOCK.OBJ|C:\USERS\김한샘\DOCUMENTS\프로젝트 관리 폴더\PROJECTGITLAB\SERVER\TESTCLIENTENV\PPLIB\PPLIB\X64\DEBUG\CLOCK.OBJ|C:\USERS\김한샘\DOCUMENTS\프로젝트 관리 폴더\PROJECTGITLAB\SERVER\TESTCLIENTENV\PPLIB\PPLIB\X64\DEBUG\DIRECTGRAPHICS.OBJ|C:\USERS\김한샘\DOCUMENTS\프로젝트 관리 폴더\PROJECTGITLAB\SERVER\TESTCLIENTENV\PPLIB\PPLIB\X64\DEBUG\DIRECTIMAGE.OBJ|C:\USERS\김한샘\DOCUMENTS\프로젝트 관리 폴더\PROJECTGITLAB\SERVER\TESTCLIENTENV\PPLIB\PPLIB\X64\DEBUG\EVENTSELECTNETWORK.OBJ|C:\USERS\김한샘\DOCUMENTS\프로젝트 관리 폴더\PROJECTGITLAB\SERVER\TESTCLIENTENV\PPLIB\PPLIB\X64\DEBUG\JSON_READER.OBJ|C:\USERS\김한샘\DOCUMENTS\프로젝트 관리 폴더\PROJECTGITLAB\SERVER\TESTCLIENTENV\PPLIB\PPLIB\X64\DEBUG\JSON_VALUE.OBJ|C:\USERS\김한샘\DOCUMENTS\프로젝트 관리 폴더\PROJECTGITLAB\SERVER\TESTCLIENTENV\PPLIB\PPLIB\X64\DEBUG\JSON_WRITER.OBJ|C:\USERS\김한샘\DOCUMENTS\프로젝트 관리 폴더\PROJECTGITLAB\SERVER\TESTCLIENTENV\PPLIB\PPLIB\X64\DEBUG\PACKETANALYZER.OBJ|C:\USERS\김한샘\DOCUMENTS\프로젝트 관리 폴더\PROJECTGITLAB\SERVER\TESTCLIENTENV\PPLIB\PPLIB\X64\DEBUG\PACKETTYPE.OBJ|C:\USERS\김한샘\DOCUMENTS\프로젝트 관리 폴더\PROJECTGITLAB\SERVER\TESTCLIENTENV\PPLIB\PPLIB\X64\DEBUG\PANELTEXTBOARD.OBJ|C:\USERS\김한샘\DOCUMENTS\프로젝트 관리 폴더\PROJECTGITLAB\SERVER\TESTCLIENTENV\PPLIB\PPLIB\X64\DEBUG\SESSION.OBJ|C:\USERS\김한샘\DOCUMENTS\프로젝트 관리 폴더\PROJECTGITLAB\SERVER\TESTCLIENTENV\PPLIB\PPLIB\X64\DEBUG\STDAFX.OBJ|C:\USERS\김한샘\DOCUMENTS\프로젝트 관리 폴더\PROJECTGITLAB\SERVER\TESTCLIENTENV\PPLIB\PPLIB\X64\DEBUG\STREAM.OBJ|C:\USERS\김한샘\DOCUMENTS\프로젝트 관리 폴더\PROJECTGITLAB\SERVER\TESTCLIENTENV\PPLIB\PPLIB\X64\DEBUG\TIMER.OBJ
C:\USERS\김한샘\DOCUMENTS\프로젝트 관리 폴더\PROJECTGITLAB\SERVER\TESTCLIENTENV\PPLIB\PPLIB\X64\DEBUG\BACKOFFSPINLOCK.OBJ
C:\WINDOWS\SYSTEM32\TZRES.DLL
C:\USERS\김한샘\DOCUMENTS\프로젝트 관리 폴더\PROJECTGITLAB\SERVER\TESTCLIENTENV\PPLIB\PPLIB\X64\DEBUG\CLOCK.OBJ
C:\USERS\김한샘\DOCUMENTS\프로젝트 관리 폴더\PROJECTGITLAB\SERVER\TESTCLIENTENV\PPLIB\PPLIB\X64\DEBUG\DIRECTGRAPHICS.OBJ
C:\USERS\김한샘\DOCUMENTS\프로젝트 관리 폴더\PROJECTGITLAB\SERVER\TESTCLIENTENV\PPLIB\PPLIB\X64\DEBUG\DIRECTIMAGE.OBJ
C:\USERS\김한샘\DOCUMENTS\프로젝트 관리 폴더\PROJECTGITLAB\SERVER\TESTCLIENTENV\PPLIB\PPLIB\X64\DEBUG\STREAM.OBJ
C:\USERS\김한샘\DOCUMENTS\프로젝트 관리 폴더\PROJECTGITLAB\SERVER\TESTCLIENTENV\PPLIB\PPLIB\X64\DEBUG\TIMER.OBJ
C:\USERS\김한샘\DOCUMENTS\프로젝트 관리 폴더\PROJECTGITLAB\SERVER\TESTCLIENTENV\PPLIB\PPLIB\X64\DEBUG\PANELTEXTBOARD.OBJ
C:\USERS\김한샘\DOCUMENTS\프로젝트 관리 폴더\PROJECTGITLAB\SERVER\TESTCLIENTENV\PPLIB\PPLIB\X64\DEBUG\JSON_READER.OBJ
C:\USERS\김한샘\DOCUMENTS\프로젝트 관리 폴더\PROJECTGITLAB\SERVER\TESTCLIENTENV\PPLIB\PPLIB\X64\DEBUG\JSON_VALUE.OBJ
C:\USERS\김한샘\DOCUMENTS\프로젝트 관리 폴더\PROJECTGITLAB\SERVER\TESTCLIENTENV\PPLIB\PPLIB\X64\DEBUG\JSON_WRITER.OBJ
C:\USERS\김한샘\DOCUMENTS\프로젝트 관리 폴더\PROJECTGITLAB\SERVER\TESTCLIENTENV\PPLIB\PPLIB\X64\DEBUG\EVENTSELECTNETWORK.OBJ
C:\USERS\김한샘\DOCUMENTS\프로젝트 관리 폴더\PROJECTGITLAB\SERVER\TESTCLIENTENV\PPLIB\PPLIB\X64\DEBUG\PACKETANALYZER.OBJ
C:\USERS\김한샘\DOCUMENTS\프로젝트 관리 폴더\PROJECTGITLAB\SERVER\TESTCLIENTENV\PPLIB\PPLIB\X64\DEBUG\PACKETTYPE.OBJ
C:\USERS\김한샘\DOCUMENTS\프로젝트 관리 폴더\PROJECTGITLAB\SERVER\TESTCLIENTENV\PPLIB\PPLIB\X64\DEBUG\SESSION.OBJ
C:\USERS\김한샘\DOCUMENTS\프로젝트 관리 폴더\PROJECTGITLAB\SERVER\TESTCLIENTENV\PPLIB\PPLIB\X64\DEBUG\STDAFX.OBJ
C:\WINDOWS\GLOBALIZATION\SORTING\SORTDEFAULT.NLS
C:\PROGRAM FILES (X86)\MICROSOFT VISUAL STUDIO\2017\COMMUNITY\VC\TOOLS\MSVC\14.14.26428\BIN\HOSTX86\X64\1042\LINKUI.DLL
