^C:\USERS\김한샘\DOCUMENTS\프로젝트 관리 폴더\PROJECTGITLAB\테스트폴더\TESTSERVER\TESTSERVER\AVATAR.CPP|C:\USERS\김한샘\DOCUMENTS\프로젝트 관리 폴더\PROJECTGITLAB\테스트폴더\TESTSERVER\TESTSERVER\SECTOR.CPP
C:\USERS\김한샘\DOCUMENTS\프로젝트 관리 폴더\PROJECTGITLAB\테스트폴더\TESTSERVER\TESTSERVER\X64\DEBUG\VC141.PDB
C:\USERS\김한샘\DOCUMENTS\프로젝트 관리 폴더\PROJECTGITLAB\테스트폴더\TESTSERVER\TESTSERVER\X64\DEBUG\VC141.IDB
C:\USERS\김한샘\DOCUMENTS\프로젝트 관리 폴더\PROJECTGITLAB\테스트폴더\TESTSERVER\TESTSERVER\X64\DEBUG\SECTOR.OBJ
C:\USERS\김한샘\DOCUMENTS\프로젝트 관리 폴더\PROJECTGITLAB\테스트폴더\TESTSERVER\TESTSERVER\X64\DEBUG\AVATAR.OBJ
^C:\USERS\김한샘\DOCUMENTS\프로젝트 관리 폴더\PROJECTGITLAB\테스트폴더\TESTSERVER\TESTSERVER\SECTOR.CPP|C:\USERS\김한샘\DOCUMENTS\프로젝트 관리 폴더\PROJECTGITLAB\테스트폴더\TESTSERVER\TESTSERVER\SESSION.CPP
C:\USERS\김한샘\DOCUMENTS\프로젝트 관리 폴더\PROJECTGITLAB\테스트폴더\TESTSERVER\TESTSERVER\X64\DEBUG\VC141.PDB
C:\USERS\김한샘\DOCUMENTS\프로젝트 관리 폴더\PROJECTGITLAB\테스트폴더\TESTSERVER\TESTSERVER\X64\DEBUG\VC141.IDB
C:\USERS\김한샘\DOCUMENTS\프로젝트 관리 폴더\PROJECTGITLAB\테스트폴더\TESTSERVER\TESTSERVER\X64\DEBUG\SESSION.OBJ
C:\USERS\김한샘\DOCUMENTS\프로젝트 관리 폴더\PROJECTGITLAB\테스트폴더\TESTSERVER\TESTSERVER\X64\DEBUG\SECTOR.OBJ
^C:\USERS\김한샘\DOCUMENTS\프로젝트 관리 폴더\PROJECTGITLAB\테스트폴더\TESTSERVER\TESTSERVER\AVATAR.CPP|C:\USERS\김한샘\DOCUMENTS\프로젝트 관리 폴더\PROJECTGITLAB\테스트폴더\TESTSERVER\TESTSERVER\PACKETMANAGER.CPP|C:\USERS\김한샘\DOCUMENTS\프로젝트 관리 폴더\PROJECTGITLAB\테스트폴더\TESTSERVER\TESTSERVER\RECYCLEOVERLAPPEDMANAGER.CPP
C:\USERS\김한샘\DOCUMENTS\프로젝트 관리 폴더\PROJECTGITLAB\테스트폴더\TESTSERVER\TESTSERVER\X64\DEBUG\VC141.PDB
C:\USERS\김한샘\DOCUMENTS\프로젝트 관리 폴더\PROJECTGITLAB\테스트폴더\TESTSERVER\TESTSERVER\X64\DEBUG\VC141.IDB
C:\USERS\김한샘\DOCUMENTS\프로젝트 관리 폴더\PROJECTGITLAB\테스트폴더\TESTSERVER\TESTSERVER\X64\DEBUG\RECYCLEOVERLAPPEDMANAGER.OBJ
C:\USERS\김한샘\DOCUMENTS\프로젝트 관리 폴더\PROJECTGITLAB\테스트폴더\TESTSERVER\TESTSERVER\X64\DEBUG\AVATAR.OBJ
^C:\USERS\김한샘\DOCUMENTS\프로젝트 관리 폴더\PROJECTGITLAB\테스트폴더\TESTSERVER\TESTSERVER\AVATAR.CPP|C:\USERS\김한샘\DOCUMENTS\프로젝트 관리 폴더\PROJECTGITLAB\테스트폴더\TESTSERVER\TESTSERVER\SESSION.CPP
C:\USERS\김한샘\DOCUMENTS\프로젝트 관리 폴더\PROJECTGITLAB\테스트폴더\TESTSERVER\TESTSERVER\X64\DEBUG\VC141.PDB
C:\USERS\김한샘\DOCUMENTS\프로젝트 관리 폴더\PROJECTGITLAB\테스트폴더\TESTSERVER\TESTSERVER\X64\DEBUG\VC141.IDB
C:\USERS\김한샘\DOCUMENTS\프로젝트 관리 폴더\PROJECTGITLAB\테스트폴더\TESTSERVER\TESTSERVER\X64\DEBUG\SESSION.OBJ
C:\USERS\김한샘\DOCUMENTS\프로젝트 관리 폴더\PROJECTGITLAB\테스트폴더\TESTSERVER\TESTSERVER\X64\DEBUG\AVATAR.OBJ
^C:\USERS\김한샘\DOCUMENTS\프로젝트 관리 폴더\PROJECTGITLAB\테스트폴더\TESTSERVER\TESTSERVER\STDAFX.CPP
C:\USERS\김한샘\DOCUMENTS\프로젝트 관리 폴더\PROJECTGITLAB\테스트폴더\TESTSERVER\TESTSERVER\X64\DEBUG\TESTSERVER.PCH
C:\USERS\김한샘\DOCUMENTS\프로젝트 관리 폴더\PROJECTGITLAB\테스트폴더\TESTSERVER\TESTSERVER\X64\DEBUG\VC141.PDB
C:\USERS\김한샘\DOCUMENTS\프로젝트 관리 폴더\PROJECTGITLAB\테스트폴더\TESTSERVER\TESTSERVER\X64\DEBUG\VC141.IDB
C:\USERS\김한샘\DOCUMENTS\프로젝트 관리 폴더\PROJECTGITLAB\테스트폴더\TESTSERVER\TESTSERVER\X64\DEBUG\STDAFX.OBJ
^C:\USERS\김한샘\DOCUMENTS\프로젝트 관리 폴더\PROJECTGITLAB\테스트폴더\TESTSERVER\TESTSERVER\AVATAR.CPP|C:\USERS\김한샘\DOCUMENTS\프로젝트 관리 폴더\PROJECTGITLAB\테스트폴더\TESTSERVER\TESTSERVER\CLIENTMANAGER.CPP|C:\USERS\김한샘\DOCUMENTS\프로젝트 관리 폴더\PROJECTGITLAB\테스트폴더\TESTSERVER\TESTSERVER\CLIENTPROXY.CPP|C:\USERS\김한샘\DOCUMENTS\프로젝트 관리 폴더\PROJECTGITLAB\테스트폴더\TESTSERVER\TESTSERVER\CLOCK.CPP|C:\USERS\김한샘\DOCUMENTS\프로젝트 관리 폴더\PROJECTGITLAB\테스트폴더\TESTSERVER\TESTSERVER\DATABASE.CPP|C:\USERS\김한샘\DOCUMENTS\프로젝트 관리 폴더\PROJECTGITLAB\테스트폴더\TESTSERVER\TESTSERVER\DBEVENT.CPP|C:\USERS\김한샘\DOCUMENTS\프로젝트 관리 폴더\PROJECTGITLAB\테스트폴더\TESTSERVER\TESTSERVER\DBTASKMANAGER.CPP|C:\USERS\김한샘\DOCUMENTS\프로젝트 관리 폴더\PROJECTGITLAB\테스트폴더\TESTSERVER\TESTSERVER\EVENTTASK.CPP|C:\USERS\김한샘\DOCUMENTS\프로젝트 관리 폴더\PROJECTGITLAB\테스트폴더\TESTSERVER\TESTSERVER\EVENTTIMER.CPP|C:\USERS\김한샘\DOCUMENTS\프로젝트 관리 폴더\PROJECTGITLAB\테스트폴더\TESTSERVER\TESTSERVER\GLOBAL.CPP|C:\USERS\김한샘\DOCUMENTS\프로젝트 관리 폴더\PROJECTGITLAB\테스트폴더\TESTSERVER\TESTSERVER\IOCPSERVER.CPP|C:\USERS\김한샘\DOCUMENTS\프로젝트 관리 폴더\PROJECTGITLAB\테스트폴더\TESTSERVER\TESTSERVER\ITEM.CPP|C:\USERS\김한샘\DOCUMENTS\프로젝트 관리 폴더\PROJECTGITLAB\테스트폴더\TESTSERVER\TESTSERVER\MINIDUMP.CPP|C:\USERS\김한샘\DOCUMENTS\프로젝트 관리 폴더\PROJECTGITLAB\테스트폴더\TESTSERVER\TESTSERVER\NPC.CPP|C:\USERS\김한샘\DOCUMENTS\프로젝트 관리 폴더\PROJECTGITLAB\테스트폴더\TESTSERVER\TESTSERVER\NPCMANAGER.CPP|C:\USERS\김한샘\DOCUMENTS\프로젝트 관리 폴더\PROJECTGITLAB\테스트폴더\TESTSERVER\TESTSERVER\OVERLAPPEDEXTENSION.CPP|C:\USERS\김한샘\DOCUMENTS\프로젝트 관리 폴더\PROJECTGITLAB\테스트폴더\TESTSERVER\TESTSERVER\PACKET.CPP|C:\USERS\김한샘\DOCUMENTS\프로젝트 관리 폴더\PROJECTGITLAB\테스트폴더\TESTSERVER\TESTSERVER\PACKETMANAGER.CPP|C:\USERS\김한샘\DOCUMENTS\프로젝트 관리 폴더\PROJECTGITLAB\테스트폴더\TESTSERVER\TESTSERVER\RECYCLEOVERLAPPEDMANAGER.CPP|C:\USERS\김한샘\DOCUMENTS\프로젝트 관리 폴더\PROJECTGITLAB\테스트폴더\TESTSERVER\TESTSERVER\SECTOR.CPP|C:\USERS\김한샘\DOCUMENTS\프로젝트 관리 폴더\PROJECTGITLAB\테스트폴더\TESTSERVER\TESTSERVER\SERVER.CPP|C:\USERS\김한샘\DOCUMENTS\프로젝트 관리 폴더\PROJECTGITLAB\테스트폴더\TESTSERVER\TESTSERVER\SESSION.CPP|C:\USERS\김한샘\DOCUMENTS\프로젝트 관리 폴더\PROJECTGITLAB\테스트폴더\TESTSERVER\TESTSERVER\SESSIONMANAGER.CPP|C:\USERS\김한샘\DOCUMENTS\프로젝트 관리 폴더\PROJECTGITLAB\테스트폴더\TESTSERVER\TESTSERVER\STREAM.CPP|C:\USERS\김한샘\DOCUMENTS\프로젝트 관리 폴더\PROJECTGITLAB\테스트폴더\TESTSERVER\TESTSERVER\TESTSERVER.CPP|C:\USERS\김한샘\DOCUMENTS\프로젝트 관리 폴더\PROJECTGITLAB\테스트폴더\TESTSERVER\TESTSERVER\WORLD.CPP|C:\USERS\김한샘\DOCUMENTS\프로젝트 관리 폴더\PROJECTGITLAB\테스트폴더\TESTSERVER\TESTSERVER\WORLDCONTENTS.CPP
C:\USERS\김한샘\DOCUMENTS\프로젝트 관리 폴더\PROJECTGITLAB\테스트폴더\TESTSERVER\TESTSERVER\X64\DEBUG\VC141.PDB
C:\USERS\김한샘\DOCUMENTS\프로젝트 관리 폴더\PROJECTGITLAB\테스트폴더\TESTSERVER\TESTSERVER\X64\DEBUG\VC141.IDB
C:\USERS\김한샘\DOCUMENTS\프로젝트 관리 폴더\PROJECTGITLAB\테스트폴더\TESTSERVER\TESTSERVER\X64\DEBUG\SECTOR.OBJ
C:\USERS\김한샘\DOCUMENTS\프로젝트 관리 폴더\PROJECTGITLAB\테스트폴더\TESTSERVER\TESTSERVER\X64\DEBUG\RECYCLEOVERLAPPEDMANAGER.OBJ
C:\USERS\김한샘\DOCUMENTS\프로젝트 관리 폴더\PROJECTGITLAB\테스트폴더\TESTSERVER\TESTSERVER\X64\DEBUG\PACKETMANAGER.OBJ
C:\USERS\김한샘\DOCUMENTS\프로젝트 관리 폴더\PROJECTGITLAB\테스트폴더\TESTSERVER\TESTSERVER\X64\DEBUG\PACKET.OBJ
C:\USERS\김한샘\DOCUMENTS\프로젝트 관리 폴더\PROJECTGITLAB\테스트폴더\TESTSERVER\TESTSERVER\X64\DEBUG\OVERLAPPEDEXTENSION.OBJ
C:\USERS\김한샘\DOCUMENTS\프로젝트 관리 폴더\PROJECTGITLAB\테스트폴더\TESTSERVER\TESTSERVER\X64\DEBUG\NPCMANAGER.OBJ
C:\USERS\김한샘\DOCUMENTS\프로젝트 관리 폴더\PROJECTGITLAB\테스트폴더\TESTSERVER\TESTSERVER\X64\DEBUG\NPC.OBJ
C:\USERS\김한샘\DOCUMENTS\프로젝트 관리 폴더\PROJECTGITLAB\테스트폴더\TESTSERVER\TESTSERVER\X64\DEBUG\MINIDUMP.OBJ
C:\USERS\김한샘\DOCUMENTS\프로젝트 관리 폴더\PROJECTGITLAB\테스트폴더\TESTSERVER\TESTSERVER\X64\DEBUG\ITEM.OBJ
C:\USERS\김한샘\DOCUMENTS\프로젝트 관리 폴더\PROJECTGITLAB\테스트폴더\TESTSERVER\TESTSERVER\X64\DEBUG\IOCPSERVER.OBJ
C:\USERS\김한샘\DOCUMENTS\프로젝트 관리 폴더\PROJECTGITLAB\테스트폴더\TESTSERVER\TESTSERVER\X64\DEBUG\GLOBAL.OBJ
C:\USERS\김한샘\DOCUMENTS\프로젝트 관리 폴더\PROJECTGITLAB\테스트폴더\TESTSERVER\TESTSERVER\X64\DEBUG\EVENTTIMER.OBJ
C:\USERS\김한샘\DOCUMENTS\프로젝트 관리 폴더\PROJECTGITLAB\테스트폴더\TESTSERVER\TESTSERVER\X64\DEBUG\EVENTTASK.OBJ
C:\USERS\김한샘\DOCUMENTS\프로젝트 관리 폴더\PROJECTGITLAB\테스트폴더\TESTSERVER\TESTSERVER\X64\DEBUG\DATABASE.OBJ
C:\USERS\김한샘\DOCUMENTS\프로젝트 관리 폴더\PROJECTGITLAB\테스트폴더\TESTSERVER\TESTSERVER\X64\DEBUG\DBTASKMANAGER.OBJ
C:\USERS\김한샘\DOCUMENTS\프로젝트 관리 폴더\PROJECTGITLAB\테스트폴더\TESTSERVER\TESTSERVER\X64\DEBUG\DBEVENT.OBJ
C:\USERS\김한샘\DOCUMENTS\프로젝트 관리 폴더\PROJECTGITLAB\테스트폴더\TESTSERVER\TESTSERVER\X64\DEBUG\CLOCK.OBJ
C:\USERS\김한샘\DOCUMENTS\프로젝트 관리 폴더\PROJECTGITLAB\테스트폴더\TESTSERVER\TESTSERVER\X64\DEBUG\CLIENTPROXY.OBJ
C:\USERS\김한샘\DOCUMENTS\프로젝트 관리 폴더\PROJECTGITLAB\테스트폴더\TESTSERVER\TESTSERVER\X64\DEBUG\CLIENTMANAGER.OBJ
C:\USERS\김한샘\DOCUMENTS\프로젝트 관리 폴더\PROJECTGITLAB\테스트폴더\TESTSERVER\TESTSERVER\X64\DEBUG\AVATAR.OBJ
C:\USERS\김한샘\DOCUMENTS\프로젝트 관리 폴더\PROJECTGITLAB\테스트폴더\TESTSERVER\TESTSERVER\X64\DEBUG\WORLDCONTENTS.OBJ
C:\USERS\김한샘\DOCUMENTS\프로젝트 관리 폴더\PROJECTGITLAB\테스트폴더\TESTSERVER\TESTSERVER\X64\DEBUG\WORLD.OBJ
C:\USERS\김한샘\DOCUMENTS\프로젝트 관리 폴더\PROJECTGITLAB\테스트폴더\TESTSERVER\TESTSERVER\X64\DEBUG\TESTSERVER.OBJ
C:\USERS\김한샘\DOCUMENTS\프로젝트 관리 폴더\PROJECTGITLAB\테스트폴더\TESTSERVER\TESTSERVER\X64\DEBUG\STREAM.OBJ
C:\USERS\김한샘\DOCUMENTS\프로젝트 관리 폴더\PROJECTGITLAB\테스트폴더\TESTSERVER\TESTSERVER\X64\DEBUG\SESSIONMANAGER.OBJ
C:\USERS\김한샘\DOCUMENTS\프로젝트 관리 폴더\PROJECTGITLAB\테스트폴더\TESTSERVER\TESTSERVER\X64\DEBUG\SESSION.OBJ
C:\USERS\김한샘\DOCUMENTS\프로젝트 관리 폴더\PROJECTGITLAB\테스트폴더\TESTSERVER\TESTSERVER\X64\DEBUG\SERVER.OBJ
^C:\USERS\김한샘\DOCUMENTS\프로젝트 관리 폴더\PROJECTGITLAB\테스트폴더\TESTSERVER\TESTSERVER\AVATAR.CPP
C:\USERS\김한샘\DOCUMENTS\프로젝트 관리 폴더\PROJECTGITLAB\테스트폴더\TESTSERVER\TESTSERVER\X64\DEBUG\VC141.PDB
^C:\USERS\김한샘\DOCUMENTS\프로젝트 관리 폴더\PROJECTGITLAB\테스트폴더\TESTSERVER\TESTSERVER\CLIENTMANAGER.CPP
C:\USERS\김한샘\DOCUMENTS\프로젝트 관리 폴더\PROJECTGITLAB\테스트폴더\TESTSERVER\TESTSERVER\X64\DEBUG\VC141.PDB
^C:\USERS\김한샘\DOCUMENTS\프로젝트 관리 폴더\PROJECTGITLAB\테스트폴더\TESTSERVER\TESTSERVER\CLIENTPROXY.CPP
C:\USERS\김한샘\DOCUMENTS\프로젝트 관리 폴더\PROJECTGITLAB\테스트폴더\TESTSERVER\TESTSERVER\X64\DEBUG\VC141.PDB
^C:\USERS\김한샘\DOCUMENTS\프로젝트 관리 폴더\PROJECTGITLAB\테스트폴더\TESTSERVER\TESTSERVER\CLOCK.CPP
C:\USERS\김한샘\DOCUMENTS\프로젝트 관리 폴더\PROJECTGITLAB\테스트폴더\TESTSERVER\TESTSERVER\X64\DEBUG\VC141.PDB
^C:\USERS\김한샘\DOCUMENTS\프로젝트 관리 폴더\PROJECTGITLAB\테스트폴더\TESTSERVER\TESTSERVER\DBEVENT.CPP
C:\USERS\김한샘\DOCUMENTS\프로젝트 관리 폴더\PROJECTGITLAB\테스트폴더\TESTSERVER\TESTSERVER\X64\DEBUG\VC141.PDB
^C:\USERS\김한샘\DOCUMENTS\프로젝트 관리 폴더\PROJECTGITLAB\테스트폴더\TESTSERVER\TESTSERVER\DBTASKMANAGER.CPP
C:\USERS\김한샘\DOCUMENTS\프로젝트 관리 폴더\PROJECTGITLAB\테스트폴더\TESTSERVER\TESTSERVER\X64\DEBUG\VC141.PDB
^C:\USERS\김한샘\DOCUMENTS\프로젝트 관리 폴더\PROJECTGITLAB\테스트폴더\TESTSERVER\TESTSERVER\DATABASE.CPP
C:\USERS\김한샘\DOCUMENTS\프로젝트 관리 폴더\PROJECTGITLAB\테스트폴더\TESTSERVER\TESTSERVER\X64\DEBUG\VC141.PDB
^C:\USERS\김한샘\DOCUMENTS\프로젝트 관리 폴더\PROJECTGITLAB\테스트폴더\TESTSERVER\TESTSERVER\EVENTTASK.CPP
C:\USERS\김한샘\DOCUMENTS\프로젝트 관리 폴더\PROJECTGITLAB\테스트폴더\TESTSERVER\TESTSERVER\X64\DEBUG\VC141.PDB
^C:\USERS\김한샘\DOCUMENTS\프로젝트 관리 폴더\PROJECTGITLAB\테스트폴더\TESTSERVER\TESTSERVER\EVENTTIMER.CPP
C:\USERS\김한샘\DOCUMENTS\프로젝트 관리 폴더\PROJECTGITLAB\테스트폴더\TESTSERVER\TESTSERVER\X64\DEBUG\VC141.PDB
^C:\USERS\김한샘\DOCUMENTS\프로젝트 관리 폴더\PROJECTGITLAB\테스트폴더\TESTSERVER\TESTSERVER\GLOBAL.CPP
C:\USERS\김한샘\DOCUMENTS\프로젝트 관리 폴더\PROJECTGITLAB\테스트폴더\TESTSERVER\TESTSERVER\X64\DEBUG\VC141.PDB
^C:\USERS\김한샘\DOCUMENTS\프로젝트 관리 폴더\PROJECTGITLAB\테스트폴더\TESTSERVER\TESTSERVER\IOCPSERVER.CPP
C:\USERS\김한샘\DOCUMENTS\프로젝트 관리 폴더\PROJECTGITLAB\테스트폴더\TESTSERVER\TESTSERVER\X64\DEBUG\VC141.PDB
^C:\USERS\김한샘\DOCUMENTS\프로젝트 관리 폴더\PROJECTGITLAB\테스트폴더\TESTSERVER\TESTSERVER\ITEM.CPP
C:\USERS\김한샘\DOCUMENTS\프로젝트 관리 폴더\PROJECTGITLAB\테스트폴더\TESTSERVER\TESTSERVER\X64\DEBUG\VC141.PDB
^C:\USERS\김한샘\DOCUMENTS\프로젝트 관리 폴더\PROJECTGITLAB\테스트폴더\TESTSERVER\TESTSERVER\MINIDUMP.CPP
C:\USERS\김한샘\DOCUMENTS\프로젝트 관리 폴더\PROJECTGITLAB\테스트폴더\TESTSERVER\TESTSERVER\X64\DEBUG\VC141.PDB
^C:\USERS\김한샘\DOCUMENTS\프로젝트 관리 폴더\PROJECTGITLAB\테스트폴더\TESTSERVER\TESTSERVER\NPC.CPP
C:\USERS\김한샘\DOCUMENTS\프로젝트 관리 폴더\PROJECTGITLAB\테스트폴더\TESTSERVER\TESTSERVER\X64\DEBUG\VC141.PDB
^C:\USERS\김한샘\DOCUMENTS\프로젝트 관리 폴더\PROJECTGITLAB\테스트폴더\TESTSERVER\TESTSERVER\NPCMANAGER.CPP
C:\USERS\김한샘\DOCUMENTS\프로젝트 관리 폴더\PROJECTGITLAB\테스트폴더\TESTSERVER\TESTSERVER\X64\DEBUG\VC141.PDB
^C:\USERS\김한샘\DOCUMENTS\프로젝트 관리 폴더\PROJECTGITLAB\테스트폴더\TESTSERVER\TESTSERVER\OVERLAPPEDEXTENSION.CPP
C:\USERS\김한샘\DOCUMENTS\프로젝트 관리 폴더\PROJECTGITLAB\테스트폴더\TESTSERVER\TESTSERVER\X64\DEBUG\VC141.PDB
^C:\USERS\김한샘\DOCUMENTS\프로젝트 관리 폴더\PROJECTGITLAB\테스트폴더\TESTSERVER\TESTSERVER\PACKET.CPP
C:\USERS\김한샘\DOCUMENTS\프로젝트 관리 폴더\PROJECTGITLAB\테스트폴더\TESTSERVER\TESTSERVER\X64\DEBUG\VC141.PDB
^C:\USERS\김한샘\DOCUMENTS\프로젝트 관리 폴더\PROJECTGITLAB\테스트폴더\TESTSERVER\TESTSERVER\PACKETMANAGER.CPP
C:\USERS\김한샘\DOCUMENTS\프로젝트 관리 폴더\PROJECTGITLAB\테스트폴더\TESTSERVER\TESTSERVER\X64\DEBUG\VC141.PDB
^C:\USERS\김한샘\DOCUMENTS\프로젝트 관리 폴더\PROJECTGITLAB\테스트폴더\TESTSERVER\TESTSERVER\RECYCLEOVERLAPPEDMANAGER.CPP
C:\USERS\김한샘\DOCUMENTS\프로젝트 관리 폴더\PROJECTGITLAB\테스트폴더\TESTSERVER\TESTSERVER\X64\DEBUG\VC141.PDB
^C:\USERS\김한샘\DOCUMENTS\프로젝트 관리 폴더\PROJECTGITLAB\테스트폴더\TESTSERVER\TESTSERVER\SECTOR.CPP
C:\USERS\김한샘\DOCUMENTS\프로젝트 관리 폴더\PROJECTGITLAB\테스트폴더\TESTSERVER\TESTSERVER\X64\DEBUG\VC141.PDB
^C:\USERS\김한샘\DOCUMENTS\프로젝트 관리 폴더\PROJECTGITLAB\테스트폴더\TESTSERVER\TESTSERVER\SERVER.CPP
C:\USERS\김한샘\DOCUMENTS\프로젝트 관리 폴더\PROJECTGITLAB\테스트폴더\TESTSERVER\TESTSERVER\X64\DEBUG\VC141.PDB
^C:\USERS\김한샘\DOCUMENTS\프로젝트 관리 폴더\PROJECTGITLAB\테스트폴더\TESTSERVER\TESTSERVER\SESSION.CPP
C:\USERS\김한샘\DOCUMENTS\프로젝트 관리 폴더\PROJECTGITLAB\테스트폴더\TESTSERVER\TESTSERVER\X64\DEBUG\VC141.PDB
^C:\USERS\김한샘\DOCUMENTS\프로젝트 관리 폴더\PROJECTGITLAB\테스트폴더\TESTSERVER\TESTSERVER\SESSIONMANAGER.CPP
C:\USERS\김한샘\DOCUMENTS\프로젝트 관리 폴더\PROJECTGITLAB\테스트폴더\TESTSERVER\TESTSERVER\X64\DEBUG\VC141.PDB
^C:\USERS\김한샘\DOCUMENTS\프로젝트 관리 폴더\PROJECTGITLAB\테스트폴더\TESTSERVER\TESTSERVER\STREAM.CPP
C:\USERS\김한샘\DOCUMENTS\프로젝트 관리 폴더\PROJECTGITLAB\테스트폴더\TESTSERVER\TESTSERVER\X64\DEBUG\VC141.PDB
^C:\USERS\김한샘\DOCUMENTS\프로젝트 관리 폴더\PROJECTGITLAB\테스트폴더\TESTSERVER\TESTSERVER\TESTSERVER.CPP
C:\USERS\김한샘\DOCUMENTS\프로젝트 관리 폴더\PROJECTGITLAB\테스트폴더\TESTSERVER\TESTSERVER\X64\DEBUG\VC141.PDB
^C:\USERS\김한샘\DOCUMENTS\프로젝트 관리 폴더\PROJECTGITLAB\테스트폴더\TESTSERVER\TESTSERVER\WORLD.CPP
C:\USERS\김한샘\DOCUMENTS\프로젝트 관리 폴더\PROJECTGITLAB\테스트폴더\TESTSERVER\TESTSERVER\X64\DEBUG\VC141.PDB
^C:\USERS\김한샘\DOCUMENTS\프로젝트 관리 폴더\PROJECTGITLAB\테스트폴더\TESTSERVER\TESTSERVER\WORLDCONTENTS.CPP
C:\USERS\김한샘\DOCUMENTS\프로젝트 관리 폴더\PROJECTGITLAB\테스트폴더\TESTSERVER\TESTSERVER\X64\DEBUG\VC141.PDB
