{ "MonsterList" : [
					{
					  "name" : "M_mushroom" ,
					  "Filename" : "resource\\monster\\BaseMonster.png",
					  "wid" : 16,
					  "hig" : 16,
					  "frame" : 3,
					  "state" : ["Idle", "Walk", "Attack", "Faint"],
					  "dir" : {
						"down" : [[0,0],[0,1],[0,2]],
						"up"   : [[1,0],[1,1],[1,2]],
						"right": [[2,0],[2,1],[2,2]],
						"left" : [[3,0],[3,1],[3,2]]
							   }
					},
					{
					  "name" : "M_SLIME_Green" ,
					  "Filename" : "resource\\monster\\BaseMonster.png",
					  "wid" : 16,
					  "hig" : 16,
					  "frame" : 3,
					  "state" : ["Idle", "Walk", "Attack", "Faint"],
					  "dir" : {
					   "down" : [[2,3],[2,4],[2,5]],
					   "up"   : [[2,3],[2,4],[2,5]],
					   "right": [[2,3],[2,4],[2,5]],
					   "left" : [[2,3],[2,4],[2,5]]
								}
					},
					{
					  "name" : "M_SLIME_Orange" ,
					  "Filename" : "resource\\monster\\BaseMonster.png",
					  "wid" : 16,
					  "hig" : 16,
					  "frame" : 3,
					  "state" : ["Idle", "Walk", "Attack", "Faint"],
					  "dir" : {
					   "down" : [[0,3],[0,4],[0,5]],
					   "up"   : [[0,3],[0,4],[0,5]],
					   "right": [[0,3],[0,4],[0,5]],
					   "left" : [[0,3],[0,4],[0,5]]
							}
					},
					{
					  "name" : "M_SLIME_SKY" ,
					  "Filename" : "resource\\monster\\BaseMonster.png",
					  "wid" : 16,
					  "hig" : 16,
					  "frame" : 3,
					  "state" : ["Idle", "Walk", "Attack", "Faint"],
					  "dir" : {
					   "down" : [[3,3],[3,4],[3,5]],
					   "up"   : [[3,3],[3,4],[3,5]],
					   "right": [[3,3],[3,4],[3,5]],
					   "left" : [[3,3],[3,4],[3,5]]
							}
					},
					{
					  "name" : "M_SLIME_RED" ,
					  "Filename" : "resource\\monster\\BaseMonster.png",
					  "wid" : 16,
					  "hig" : 16,
					  "frame" : 3,
					  "state" : ["Idle", "Walk", "Attack", "Faint"],
					  "dir" : {
					   "down" : [[1,3],[1,4],[1,5]],
					   "up"   : [[1,3],[1,4],[1,5]],
					   "right": [[1,3],[1,4],[1,5]],
					   "left" : [[1,3],[1,4],[1,5]]
								}
					},
					{
					  "name" : "M_LITTLE_SKELETON" ,
					  "Filename" : "resource\\monster\\BaseMonster.png",
					  "wid" : 16,
					  "hig" : 32,
					  "frame" : 3,
					  "state" : ["Idle", "Walk", "Attack", "Faint"],
					  "dir" : {
					   "down" : [[0,6],[0,7],[0,8]],
					   "up"   : [[1,6],[1,7],[1,8]],
					   "right" :[[2,6],[2,7],[2,8]],
					   "left":  [[3,6],[3,7],[3,8]]
								}
					},
					{
					  "name" : "M_LITTLE_Goblin" ,
					  "Filename" : "resource\\monster\\BaseMonster.png",
					  "wid" : 16,
					  "hig" : 32,
					  "frame" : 3,
					  "state" : ["Idle", "Walk", "Attack", "Faint"],
					  "dir" : {
					   "down" : [[0,9],[0,10],[0,11]],
					   "up"   : [[1,9],[1,10],[1,11]],
					   "right" :[[2,9],[2,10],[2,11]],
					   "left":  [[3,9],[3,10],[3,11]]
								}
					},
					{
					  "name": "M_LITTLE_Golem" ,
					  "Filename" : "resource\\monster\\BaseMonster.png",
					  "wid" : 32,
					  "hig" : 32,
					  "frame" : 3,
					  "state" : ["Idle", "Walk", "Attack", "Faint"],
					  "dir" : {
					   "down" : [[2,0],[2,1],[2,2]],
					   "up"   : [[3,0],[3,1],[3,2]],
					   "right" :[[4,0],[4,1],[4,2]],
					   "left":  [[5,0],[5,1],[5,2]]
								}
					},
					{
					  "name" : "M_BAT" ,
					  "Filename" : "resource\\monster\\M_BET.png",
					  "wid" : 32,
					  "hig" : 32,
					  "frame" : 4,
					  "state" : ["Idle", "Walk", "Attack", "Faint"],
					  "dir" : {
					   "down" : [[0,0],[0,1],[0,2],[0,3]],
					   "up"   : [[2,0],[2,1],[2,2],[2,3]],
					   "right" :[[1,0],[1,1],[1,2],[1,3]],
					   "left":  [[3,0],[3,1],[3,2],[3,3]]
							}
					},
					{
					  "name" : "M_FIRESKELETONHEAD" ,
					  "Filename" : "resource\\monster\\BaseMonster.png",
					  "wid" : 16,
					  "hig" : 32,
					  "frame" : 3,
					  "state" : ["Idle", "Walk", "Attack", "Faint"],
					  "dir" : {
					   "down" : [[0,12],[0,13],[0,14]],
					   "up"   : [[1,12],[1,13],[1,14]],
					   "right" :[[2,12],[2,13],[2,14]],
					   "left":  [[3,12],[3,13],[3,14]]
								}
					}
				  ]
}