{
	"Level" : ["Login", "Join","InGame"],
	"Login": [
		{
			"IDInputBoard": {
				"Type" : 4,
				"RECT": [200, 370, 400, 400],
				"Active": true,
				"Input": true
			}
		},
		{
			"PWInputBoard": {
				"Type" : 4,
				"RECT": [200, 440, 400, 470],
				"Active": true,
				"Input": true
			}
		},
		{
			"IDText": {
				"Type" : 3,
				"RECT": [200, 340, 260, 380],
				"Text": "ID",
				"Active": true,
				"Input": false
			}
		},
		{
			"PWText": {
				"Type" : 3,
				"RECT": [200, 410, 280, 440],
				"Text": "PW",
				"Active": true,
				"Input": false
			}
		},
		{
			"ColorBoard": {
				"Type" : 2,
				"RECT": [200, 410, 280, 440],
				"Color" : [0.96, 0.925, 0.505, 0.2],
				"Active": true,
				"Input": false
			}
		},
		{
			"LoginButtonImage": {
				"Type" : 1,
				"RECT": [310, 500, 420, 550],
				"FilePath" : "resource\\Login_off.png",
				"Active": true,
				"Input": false
			}
		},
		{
			"JoinButtonImage": {
				"Type" : 1,
				"RECT": [180, 500, 290, 550],
				"FilePath" : "resource\\Join_off.png",
				"Active": true,
				"Input": false
			}
		},
		{
			"ExitButton": {
				"Type" : 1,
				"RECT": [500, 10, 580, 50],
				"FilePath" : "resource\\Exit_off.png",
				"Active": true,
				"Input": false
			}
		}
	],
	"Join": [
		{
			"ColorBoard_Join" : {
				"Type" : 2,
				"RECT" : [200, 270, 400, 500],
				"Color" : [0.384, 0.737, 0.262 ,0.6],
				"Active": true,
				"Input": false
			
			}
		},
		{
			"RequestButton": {
				"Type" : 1,
				"RECT": [200, 500, 300, 550],
				"FilePath" : "resource\\Request_off.png",
				"Active": false,
				"Input": false
			}
		},
		{
			"BackButton": {
				"Type" : 1,
				"RECT": [300, 500, 400, 550],
				"FilePath" : "resource\\Back_off.png",
				"Active": false,
				"Input": false
			}
		},
		{
			"IDText": {
				"Type" : 3,
				"RECT": [210, 280, 280, 500],
				"Text": "ID Write",
				"Active": false,
				"Input": false
			}
		},
		{
			"PWText": {
				"Type" : 3,
				"RECT": [210, 330, 310, 500],
				"Text": "Password Write",
				"Active": false,
				"Input": false
			}
		},
		{
			"NAMEText": {
				"Type" : 3,
				"RECT": [210, 380, 310, 500],
				"Text": "Name Write",
				"Active": false,
				"Input": false
			}
		},
		{
			"EmailText": {
				"Type" : 3,
				"RECT": [210, 430, 310, 500],
				"Text": "E-Mail Write",
				"Active": false,
				"Input": false
			}
		},
		{
			"NameInputBoard": {
				"Type" : 4,
				"RECT": [210, 405, 390, 430],
				"Active": true,
				"Input": true
			}
		},
		{
			"PWInputBoard": {
				"Type" : 4,
				"RECT": [210, 355, 390, 380],
				"Active": true,
				"Input": true
			}
		},
		{
			"EmailInputBoard": {
				"Type" : 4,
				"RECT": [210, 455, 390, 480],
				"Active": true,
				"Input": true
			}
		},
		{
			"IDInputBoard": {
				"Type" : 4,
				"RECT": [210, 305, 390, 330],
				"Active": true,
				"Input": true
			}
		}
	],
	"InGame": [
		{
			"ColorBoard_Chat" : {
				"Type" : 2,
				"RECT" : [20, 500, 400, 600],
				"Color" : [16773365, 0.7],
				"Active": true,
				"Input": false
			}
		},
		{
			"MyChatBoard": {
				"Type" : 4,
				"RECT": [20, 580, 400, 600],
				"Active": true,
				"Input": true
			}
		}
	]
}