^C:\USERS\김한샘\DOCUMENTS\프로젝트 관리 폴더\PROJECTGITLAB\DUMMY\DUMMYMONITER\DUMMYMONITER\CONNECTTHREAD.CPP|C:\USERS\김한샘\DOCUMENTS\프로젝트 관리 폴더\PROJECTGITLAB\DUMMY\DUMMYMONITER\DUMMYMONITER\DUMMYMONITER.CPP
C:\USERS\김한샘\DOCUMENTS\프로젝트 관리 폴더\PROJECTGITLAB\DUMMY\DUMMYMONITER\DUMMYMONITER\DEBUG\VC141.PDB
C:\USERS\김한샘\DOCUMENTS\프로젝트 관리 폴더\PROJECTGITLAB\DUMMY\DUMMYMONITER\DUMMYMONITER\DEBUG\VC141.IDB
C:\USERS\김한샘\DOCUMENTS\프로젝트 관리 폴더\PROJECTGITLAB\DUMMY\DUMMYMONITER\DUMMYMONITER\DEBUG\CONNECTTHREAD.OBJ
^C:\USERS\김한샘\DOCUMENTS\프로젝트 관리 폴더\PROJECTGITLAB\DUMMY\DUMMYMONITER\DUMMYMONITER\CONNECTTHREAD.CPP|C:\USERS\김한샘\DOCUMENTS\프로젝트 관리 폴더\PROJECTGITLAB\DUMMY\DUMMYMONITER\DUMMYMONITER\DUMMYMONITER.CPP|C:\USERS\김한샘\DOCUMENTS\프로젝트 관리 폴더\PROJECTGITLAB\DUMMY\DUMMYMONITER\DUMMYMONITER\GETPHYSCIALPROCESSOR.CPP|C:\USERS\김한샘\DOCUMENTS\프로젝트 관리 폴더\PROJECTGITLAB\DUMMY\DUMMYMONITER\DUMMYMONITER\UPDATETHREAD.CPP|C:\USERS\김한샘\DOCUMENTS\프로젝트 관리 폴더\PROJECTGITLAB\DUMMY\DUMMYMONITER\DUMMYMONITER\WORKERTHREAD.CPP
C:\USERS\김한샘\DOCUMENTS\프로젝트 관리 폴더\PROJECTGITLAB\DUMMY\DUMMYMONITER\DUMMYMONITER\DEBUG\VC141.PDB
C:\USERS\김한샘\DOCUMENTS\프로젝트 관리 폴더\PROJECTGITLAB\DUMMY\DUMMYMONITER\DUMMYMONITER\DEBUG\VC141.IDB
C:\USERS\김한샘\DOCUMENTS\프로젝트 관리 폴더\PROJECTGITLAB\DUMMY\DUMMYMONITER\DUMMYMONITER\DEBUG\DUMMYMONITER.OBJ
C:\USERS\김한샘\DOCUMENTS\프로젝트 관리 폴더\PROJECTGITLAB\DUMMY\DUMMYMONITER\DUMMYMONITER\DEBUG\WORKERTHREAD.OBJ
C:\USERS\김한샘\DOCUMENTS\프로젝트 관리 폴더\PROJECTGITLAB\DUMMY\DUMMYMONITER\DUMMYMONITER\DEBUG\UPDATETHREAD.OBJ
C:\USERS\김한샘\DOCUMENTS\프로젝트 관리 폴더\PROJECTGITLAB\DUMMY\DUMMYMONITER\DUMMYMONITER\DEBUG\GETPHYSCIALPROCESSOR.OBJ
C:\USERS\김한샘\DOCUMENTS\프로젝트 관리 폴더\PROJECTGITLAB\DUMMY\DUMMYMONITER\DUMMYMONITER\DEBUG\CONNECTTHREAD.OBJ
^C:\USERS\김한샘\DOCUMENTS\프로젝트 관리 폴더\PROJECTGITLAB\DUMMY\DUMMYMONITER\DUMMYMONITER\CONNECTTHREAD.CPP|C:\USERS\김한샘\DOCUMENTS\프로젝트 관리 폴더\PROJECTGITLAB\DUMMY\DUMMYMONITER\DUMMYMONITER\DUMMYMONITER.CPP|C:\USERS\김한샘\DOCUMENTS\프로젝트 관리 폴더\PROJECTGITLAB\DUMMY\DUMMYMONITER\DUMMYMONITER\UPDATETHREAD.CPP|C:\USERS\김한샘\DOCUMENTS\프로젝트 관리 폴더\PROJECTGITLAB\DUMMY\DUMMYMONITER\DUMMYMONITER\WORKERTHREAD.CPP
C:\USERS\김한샘\DOCUMENTS\프로젝트 관리 폴더\PROJECTGITLAB\DUMMY\DUMMYMONITER\DUMMYMONITER\DEBUG\VC141.PDB
C:\USERS\김한샘\DOCUMENTS\프로젝트 관리 폴더\PROJECTGITLAB\DUMMY\DUMMYMONITER\DUMMYMONITER\DEBUG\VC141.IDB
C:\USERS\김한샘\DOCUMENTS\프로젝트 관리 폴더\PROJECTGITLAB\DUMMY\DUMMYMONITER\DUMMYMONITER\DEBUG\DUMMYMONITER.OBJ
C:\USERS\김한샘\DOCUMENTS\프로젝트 관리 폴더\PROJECTGITLAB\DUMMY\DUMMYMONITER\DUMMYMONITER\DEBUG\WORKERTHREAD.OBJ
C:\USERS\김한샘\DOCUMENTS\프로젝트 관리 폴더\PROJECTGITLAB\DUMMY\DUMMYMONITER\DUMMYMONITER\DEBUG\UPDATETHREAD.OBJ
C:\USERS\김한샘\DOCUMENTS\프로젝트 관리 폴더\PROJECTGITLAB\DUMMY\DUMMYMONITER\DUMMYMONITER\DEBUG\CONNECTTHREAD.OBJ
^C:\USERS\김한샘\DOCUMENTS\프로젝트 관리 폴더\PROJECTGITLAB\DUMMY\DUMMYMONITER\DUMMYMONITER\GLOBAL.CPP|C:\USERS\김한샘\DOCUMENTS\프로젝트 관리 폴더\PROJECTGITLAB\DUMMY\DUMMYMONITER\DUMMYMONITER\UPDATETHREAD.CPP
C:\USERS\김한샘\DOCUMENTS\프로젝트 관리 폴더\PROJECTGITLAB\DUMMY\DUMMYMONITER\DUMMYMONITER\DEBUG\VC141.PDB
C:\USERS\김한샘\DOCUMENTS\프로젝트 관리 폴더\PROJECTGITLAB\DUMMY\DUMMYMONITER\DUMMYMONITER\DEBUG\VC141.IDB
C:\USERS\김한샘\DOCUMENTS\프로젝트 관리 폴더\PROJECTGITLAB\DUMMY\DUMMYMONITER\DUMMYMONITER\DEBUG\UPDATETHREAD.OBJ
C:\USERS\김한샘\DOCUMENTS\프로젝트 관리 폴더\PROJECTGITLAB\DUMMY\DUMMYMONITER\DUMMYMONITER\DEBUG\GLOBAL.OBJ
^C:\USERS\김한샘\DOCUMENTS\프로젝트 관리 폴더\PROJECTGITLAB\DUMMY\DUMMYMONITER\DUMMYMONITER\CONNECTTHREAD.CPP|C:\USERS\김한샘\DOCUMENTS\프로젝트 관리 폴더\PROJECTGITLAB\DUMMY\DUMMYMONITER\DUMMYMONITER\DUMMYMONITER.CPP|C:\USERS\김한샘\DOCUMENTS\프로젝트 관리 폴더\PROJECTGITLAB\DUMMY\DUMMYMONITER\DUMMYMONITER\GLOBAL.CPP|C:\USERS\김한샘\DOCUMENTS\프로젝트 관리 폴더\PROJECTGITLAB\DUMMY\DUMMYMONITER\DUMMYMONITER\UPDATETHREAD.CPP|C:\USERS\김한샘\DOCUMENTS\프로젝트 관리 폴더\PROJECTGITLAB\DUMMY\DUMMYMONITER\DUMMYMONITER\WORKERTHREAD.CPP
C:\USERS\김한샘\DOCUMENTS\프로젝트 관리 폴더\PROJECTGITLAB\DUMMY\DUMMYMONITER\DUMMYMONITER\DEBUG\VC141.PDB
C:\USERS\김한샘\DOCUMENTS\프로젝트 관리 폴더\PROJECTGITLAB\DUMMY\DUMMYMONITER\DUMMYMONITER\DEBUG\VC141.IDB
C:\USERS\김한샘\DOCUMENTS\프로젝트 관리 폴더\PROJECTGITLAB\DUMMY\DUMMYMONITER\DUMMYMONITER\DEBUG\WORKERTHREAD.OBJ
C:\USERS\김한샘\DOCUMENTS\프로젝트 관리 폴더\PROJECTGITLAB\DUMMY\DUMMYMONITER\DUMMYMONITER\DEBUG\UPDATETHREAD.OBJ
C:\USERS\김한샘\DOCUMENTS\프로젝트 관리 폴더\PROJECTGITLAB\DUMMY\DUMMYMONITER\DUMMYMONITER\DEBUG\GLOBAL.OBJ
C:\USERS\김한샘\DOCUMENTS\프로젝트 관리 폴더\PROJECTGITLAB\DUMMY\DUMMYMONITER\DUMMYMONITER\DEBUG\CONNECTTHREAD.OBJ
^C:\USERS\김한샘\DOCUMENTS\프로젝트 관리 폴더\PROJECTGITLAB\DUMMY\DUMMYMONITER\DUMMYMONITER\CONNECTTHREAD.CPP|C:\USERS\김한샘\DOCUMENTS\프로젝트 관리 폴더\PROJECTGITLAB\DUMMY\DUMMYMONITER\DUMMYMONITER\DUMMYMONITER.CPP|C:\USERS\김한샘\DOCUMENTS\프로젝트 관리 폴더\PROJECTGITLAB\DUMMY\DUMMYMONITER\DUMMYMONITER\GETPHSCIALPROCESSORCPP.CPP|C:\USERS\김한샘\DOCUMENTS\프로젝트 관리 폴더\PROJECTGITLAB\DUMMY\DUMMYMONITER\DUMMYMONITER\GLOBAL.CPP|C:\USERS\김한샘\DOCUMENTS\프로젝트 관리 폴더\PROJECTGITLAB\DUMMY\DUMMYMONITER\DUMMYMONITER\UPDATETHREAD.CPP|C:\USERS\김한샘\DOCUMENTS\프로젝트 관리 폴더\PROJECTGITLAB\DUMMY\DUMMYMONITER\DUMMYMONITER\WORKERTHREAD.CPP
C:\USERS\김한샘\DOCUMENTS\프로젝트 관리 폴더\PROJECTGITLAB\DUMMY\DUMMYMONITER\DUMMYMONITER\DEBUG\VC141.PDB
C:\USERS\김한샘\DOCUMENTS\프로젝트 관리 폴더\PROJECTGITLAB\DUMMY\DUMMYMONITER\DUMMYMONITER\DEBUG\VC141.IDB
C:\USERS\김한샘\DOCUMENTS\프로젝트 관리 폴더\PROJECTGITLAB\DUMMY\DUMMYMONITER\DUMMYMONITER\DEBUG\WORKERTHREAD.OBJ
C:\USERS\김한샘\DOCUMENTS\프로젝트 관리 폴더\PROJECTGITLAB\DUMMY\DUMMYMONITER\DUMMYMONITER\DEBUG\UPDATETHREAD.OBJ
C:\USERS\김한샘\DOCUMENTS\프로젝트 관리 폴더\PROJECTGITLAB\DUMMY\DUMMYMONITER\DUMMYMONITER\DEBUG\GLOBAL.OBJ
C:\USERS\김한샘\DOCUMENTS\프로젝트 관리 폴더\PROJECTGITLAB\DUMMY\DUMMYMONITER\DUMMYMONITER\DEBUG\GETPHSCIALPROCESSORCPP.OBJ
C:\USERS\김한샘\DOCUMENTS\프로젝트 관리 폴더\PROJECTGITLAB\DUMMY\DUMMYMONITER\DUMMYMONITER\DEBUG\DUMMYMONITER.OBJ
C:\USERS\김한샘\DOCUMENTS\프로젝트 관리 폴더\PROJECTGITLAB\DUMMY\DUMMYMONITER\DUMMYMONITER\DEBUG\CONNECTTHREAD.OBJ
^C:\USERS\김한샘\DOCUMENTS\프로젝트 관리 폴더\PROJECTGITLAB\DUMMY\DUMMYMONITER\DUMMYMONITER\DUMMYMONITER.CPP|C:\USERS\김한샘\DOCUMENTS\프로젝트 관리 폴더\PROJECTGITLAB\DUMMY\DUMMYMONITER\DUMMYMONITER\GETPHSCIALPROCESSORCPP.CPP
C:\USERS\김한샘\DOCUMENTS\프로젝트 관리 폴더\PROJECTGITLAB\DUMMY\DUMMYMONITER\DUMMYMONITER\DEBUG\VC141.PDB
C:\USERS\김한샘\DOCUMENTS\프로젝트 관리 폴더\PROJECTGITLAB\DUMMY\DUMMYMONITER\DUMMYMONITER\DEBUG\VC141.IDB
C:\USERS\김한샘\DOCUMENTS\프로젝트 관리 폴더\PROJECTGITLAB\DUMMY\DUMMYMONITER\DUMMYMONITER\DEBUG\DUMMYMONITER.OBJ
C:\USERS\김한샘\DOCUMENTS\프로젝트 관리 폴더\PROJECTGITLAB\DUMMY\DUMMYMONITER\DUMMYMONITER\DEBUG\GETPHSCIALPROCESSORCPP.OBJ
^C:\USERS\김한샘\DOCUMENTS\프로젝트 관리 폴더\PROJECTGITLAB\DUMMY\DUMMYMONITER\DUMMYMONITER\CONNECTTHREAD.CPP|C:\USERS\김한샘\DOCUMENTS\프로젝트 관리 폴더\PROJECTGITLAB\DUMMY\DUMMYMONITER\DUMMYMONITER\DUMMYAVATAR.CPP|C:\USERS\김한샘\DOCUMENTS\프로젝트 관리 폴더\PROJECTGITLAB\DUMMY\DUMMYMONITER\DUMMYMONITER\DUMMYMONITER.CPP|C:\USERS\김한샘\DOCUMENTS\프로젝트 관리 폴더\PROJECTGITLAB\DUMMY\DUMMYMONITER\DUMMYMONITER\GETPHSCIALPROCESSORCPP.CPP|C:\USERS\김한샘\DOCUMENTS\프로젝트 관리 폴더\PROJECTGITLAB\DUMMY\DUMMYMONITER\DUMMYMONITER\GLOBAL.CPP|C:\USERS\김한샘\DOCUMENTS\프로젝트 관리 폴더\PROJECTGITLAB\DUMMY\DUMMYMONITER\DUMMYMONITER\UPDATETHREAD.CPP|C:\USERS\김한샘\DOCUMENTS\프로젝트 관리 폴더\PROJECTGITLAB\DUMMY\DUMMYMONITER\DUMMYMONITER\WORKERTHREAD.CPP
C:\USERS\김한샘\DOCUMENTS\프로젝트 관리 폴더\PROJECTGITLAB\DUMMY\DUMMYMONITER\DUMMYMONITER\DEBUG\VC141.PDB
C:\USERS\김한샘\DOCUMENTS\프로젝트 관리 폴더\PROJECTGITLAB\DUMMY\DUMMYMONITER\DUMMYMONITER\DEBUG\VC141.IDB
C:\USERS\김한샘\DOCUMENTS\프로젝트 관리 폴더\PROJECTGITLAB\DUMMY\DUMMYMONITER\DUMMYMONITER\DEBUG\WORKERTHREAD.OBJ
C:\USERS\김한샘\DOCUMENTS\프로젝트 관리 폴더\PROJECTGITLAB\DUMMY\DUMMYMONITER\DUMMYMONITER\DEBUG\UPDATETHREAD.OBJ
C:\USERS\김한샘\DOCUMENTS\프로젝트 관리 폴더\PROJECTGITLAB\DUMMY\DUMMYMONITER\DUMMYMONITER\DEBUG\GLOBAL.OBJ
C:\USERS\김한샘\DOCUMENTS\프로젝트 관리 폴더\PROJECTGITLAB\DUMMY\DUMMYMONITER\DUMMYMONITER\DEBUG\GETPHSCIALPROCESSORCPP.OBJ
C:\USERS\김한샘\DOCUMENTS\프로젝트 관리 폴더\PROJECTGITLAB\DUMMY\DUMMYMONITER\DUMMYMONITER\DEBUG\DUMMYAVATAR.OBJ
C:\USERS\김한샘\DOCUMENTS\프로젝트 관리 폴더\PROJECTGITLAB\DUMMY\DUMMYMONITER\DUMMYMONITER\DEBUG\CONNECTTHREAD.OBJ
^C:\USERS\김한샘\DOCUMENTS\프로젝트 관리 폴더\PROJECTGITLAB\DUMMY\DUMMYMONITER\DUMMYMONITER\CONNECTTHREAD.CPP|C:\USERS\김한샘\DOCUMENTS\프로젝트 관리 폴더\PROJECTGITLAB\DUMMY\DUMMYMONITER\DUMMYMONITER\DUMMYAVATAR.CPP|C:\USERS\김한샘\DOCUMENTS\프로젝트 관리 폴더\PROJECTGITLAB\DUMMY\DUMMYMONITER\DUMMYMONITER\DUMMYMONITER.CPP|C:\USERS\김한샘\DOCUMENTS\프로젝트 관리 폴더\PROJECTGITLAB\DUMMY\DUMMYMONITER\DUMMYMONITER\GETPHSCIALPROCESSORCPP.CPP|C:\USERS\김한샘\DOCUMENTS\프로젝트 관리 폴더\PROJECTGITLAB\DUMMY\DUMMYMONITER\DUMMYMONITER\GLOBAL.CPP|C:\USERS\김한샘\DOCUMENTS\프로젝트 관리 폴더\PROJECTGITLAB\DUMMY\DUMMYMONITER\DUMMYMONITER\STREAM.CPP|C:\USERS\김한샘\DOCUMENTS\프로젝트 관리 폴더\PROJECTGITLAB\DUMMY\DUMMYMONITER\DUMMYMONITER\UPDATETHREAD.CPP|C:\USERS\김한샘\DOCUMENTS\프로젝트 관리 폴더\PROJECTGITLAB\DUMMY\DUMMYMONITER\DUMMYMONITER\WORKERTHREAD.CPP
C:\USERS\김한샘\DOCUMENTS\프로젝트 관리 폴더\PROJECTGITLAB\DUMMY\DUMMYMONITER\DUMMYMONITER\DEBUG\VC141.PDB
C:\USERS\김한샘\DOCUMENTS\프로젝트 관리 폴더\PROJECTGITLAB\DUMMY\DUMMYMONITER\DUMMYMONITER\DEBUG\VC141.IDB
C:\USERS\김한샘\DOCUMENTS\프로젝트 관리 폴더\PROJECTGITLAB\DUMMY\DUMMYMONITER\DUMMYMONITER\DEBUG\UPDATETHREAD.OBJ
C:\USERS\김한샘\DOCUMENTS\프로젝트 관리 폴더\PROJECTGITLAB\DUMMY\DUMMYMONITER\DUMMYMONITER\DEBUG\GLOBAL.OBJ
C:\USERS\김한샘\DOCUMENTS\프로젝트 관리 폴더\PROJECTGITLAB\DUMMY\DUMMYMONITER\DUMMYMONITER\DEBUG\GETPHSCIALPROCESSORCPP.OBJ
C:\USERS\김한샘\DOCUMENTS\프로젝트 관리 폴더\PROJECTGITLAB\DUMMY\DUMMYMONITER\DUMMYMONITER\DEBUG\DUMMYMONITER.OBJ
C:\USERS\김한샘\DOCUMENTS\프로젝트 관리 폴더\PROJECTGITLAB\DUMMY\DUMMYMONITER\DUMMYMONITER\DEBUG\DUMMYAVATAR.OBJ
C:\USERS\김한샘\DOCUMENTS\프로젝트 관리 폴더\PROJECTGITLAB\DUMMY\DUMMYMONITER\DUMMYMONITER\DEBUG\CONNECTTHREAD.OBJ
^C:\USERS\김한샘\DOCUMENTS\프로젝트 관리 폴더\PROJECTGITLAB\DUMMY\DUMMYMONITER\DUMMYMONITER\STREAM.CPP|C:\USERS\김한샘\DOCUMENTS\프로젝트 관리 폴더\PROJECTGITLAB\DUMMY\DUMMYMONITER\DUMMYMONITER\WORKERTHREAD.CPP
C:\USERS\김한샘\DOCUMENTS\프로젝트 관리 폴더\PROJECTGITLAB\DUMMY\DUMMYMONITER\DUMMYMONITER\DEBUG\VC141.PDB
C:\USERS\김한샘\DOCUMENTS\프로젝트 관리 폴더\PROJECTGITLAB\DUMMY\DUMMYMONITER\DUMMYMONITER\DEBUG\VC141.IDB
C:\USERS\김한샘\DOCUMENTS\프로젝트 관리 폴더\PROJECTGITLAB\DUMMY\DUMMYMONITER\DUMMYMONITER\DEBUG\STREAM.OBJ
^C:\USERS\김한샘\DOCUMENTS\프로젝트 관리 폴더\PROJECTGITLAB\DUMMY\DUMMYMONITER\DUMMYMONITER\CONNECTTHREAD.CPP|C:\USERS\김한샘\DOCUMENTS\프로젝트 관리 폴더\PROJECTGITLAB\DUMMY\DUMMYMONITER\DUMMYMONITER\DIRECTGRAPHICS.CPP|C:\USERS\김한샘\DOCUMENTS\프로젝트 관리 폴더\PROJECTGITLAB\DUMMY\DUMMYMONITER\DUMMYMONITER\DUMMYAVATAR.CPP|C:\USERS\김한샘\DOCUMENTS\프로젝트 관리 폴더\PROJECTGITLAB\DUMMY\DUMMYMONITER\DUMMYMONITER\DUMMYMONITER.CPP|C:\USERS\김한샘\DOCUMENTS\프로젝트 관리 폴더\PROJECTGITLAB\DUMMY\DUMMYMONITER\DUMMYMONITER\GETPHSCIALPROCESSORCPP.CPP|C:\USERS\김한샘\DOCUMENTS\프로젝트 관리 폴더\PROJECTGITLAB\DUMMY\DUMMYMONITER\DUMMYMONITER\GLOBAL.CPP|C:\USERS\김한샘\DOCUMENTS\프로젝트 관리 폴더\PROJECTGITLAB\DUMMY\DUMMYMONITER\DUMMYMONITER\STREAM.CPP|C:\USERS\김한샘\DOCUMENTS\프로젝트 관리 폴더\PROJECTGITLAB\DUMMY\DUMMYMONITER\DUMMYMONITER\UPDATETHREAD.CPP|C:\USERS\김한샘\DOCUMENTS\프로젝트 관리 폴더\PROJECTGITLAB\DUMMY\DUMMYMONITER\DUMMYMONITER\WORKERTHREAD.CPP
C:\USERS\김한샘\DOCUMENTS\프로젝트 관리 폴더\PROJECTGITLAB\DUMMY\DUMMYMONITER\DUMMYMONITER\DEBUG\VC141.PDB
C:\USERS\김한샘\DOCUMENTS\프로젝트 관리 폴더\PROJECTGITLAB\DUMMY\DUMMYMONITER\DUMMYMONITER\DEBUG\VC141.IDB
C:\USERS\김한샘\DOCUMENTS\프로젝트 관리 폴더\PROJECTGITLAB\DUMMY\DUMMYMONITER\DUMMYMONITER\DEBUG\DUMMYMONITER.OBJ
C:\USERS\김한샘\DOCUMENTS\프로젝트 관리 폴더\PROJECTGITLAB\DUMMY\DUMMYMONITER\DUMMYMONITER\DEBUG\WORKERTHREAD.OBJ
C:\USERS\김한샘\DOCUMENTS\프로젝트 관리 폴더\PROJECTGITLAB\DUMMY\DUMMYMONITER\DUMMYMONITER\DEBUG\UPDATETHREAD.OBJ
C:\USERS\김한샘\DOCUMENTS\프로젝트 관리 폴더\PROJECTGITLAB\DUMMY\DUMMYMONITER\DUMMYMONITER\DEBUG\STREAM.OBJ
C:\USERS\김한샘\DOCUMENTS\프로젝트 관리 폴더\PROJECTGITLAB\DUMMY\DUMMYMONITER\DUMMYMONITER\DEBUG\GLOBAL.OBJ
C:\USERS\김한샘\DOCUMENTS\프로젝트 관리 폴더\PROJECTGITLAB\DUMMY\DUMMYMONITER\DUMMYMONITER\DEBUG\GETPHSCIALPROCESSORCPP.OBJ
C:\USERS\김한샘\DOCUMENTS\프로젝트 관리 폴더\PROJECTGITLAB\DUMMY\DUMMYMONITER\DUMMYMONITER\DEBUG\DUMMYAVATAR.OBJ
C:\USERS\김한샘\DOCUMENTS\프로젝트 관리 폴더\PROJECTGITLAB\DUMMY\DUMMYMONITER\DUMMYMONITER\DEBUG\DIRECTGRAPHICS.OBJ
C:\USERS\김한샘\DOCUMENTS\프로젝트 관리 폴더\PROJECTGITLAB\DUMMY\DUMMYMONITER\DUMMYMONITER\DEBUG\CONNECTTHREAD.OBJ
^C:\USERS\김한샘\DOCUMENTS\프로젝트 관리 폴더\PROJECTGITLAB\DUMMY\DUMMYMONITER\DUMMYMONITER\CONNECTTHREAD.CPP|C:\USERS\김한샘\DOCUMENTS\프로젝트 관리 폴더\PROJECTGITLAB\DUMMY\DUMMYMONITER\DUMMYMONITER\DIRECTGRAPHICS.CPP|C:\USERS\김한샘\DOCUMENTS\프로젝트 관리 폴더\PROJECTGITLAB\DUMMY\DUMMYMONITER\DUMMYMONITER\DUMMYAVATAR.CPP|C:\USERS\김한샘\DOCUMENTS\프로젝트 관리 폴더\PROJECTGITLAB\DUMMY\DUMMYMONITER\DUMMYMONITER\DUMMYMONITER.CPP|C:\USERS\김한샘\DOCUMENTS\프로젝트 관리 폴더\PROJECTGITLAB\DUMMY\DUMMYMONITER\DUMMYMONITER\GETPHSCIALPROCESSORCPP.CPP|C:\USERS\김한샘\DOCUMENTS\프로젝트 관리 폴더\PROJECTGITLAB\DUMMY\DUMMYMONITER\DUMMYMONITER\GLOBAL.CPP|C:\USERS\김한샘\DOCUMENTS\프로젝트 관리 폴더\PROJECTGITLAB\DUMMY\DUMMYMONITER\DUMMYMONITER\PROCESSEXECUTE.CPP|C:\USERS\김한샘\DOCUMENTS\프로젝트 관리 폴더\PROJECTGITLAB\DUMMY\DUMMYMONITER\DUMMYMONITER\STREAM.CPP|C:\USERS\김한샘\DOCUMENTS\프로젝트 관리 폴더\PROJECTGITLAB\DUMMY\DUMMYMONITER\DUMMYMONITER\UPDATETHREAD.CPP|C:\USERS\김한샘\DOCUMENTS\프로젝트 관리 폴더\PROJECTGITLAB\DUMMY\DUMMYMONITER\DUMMYMONITER\WORKERTHREAD.CPP
C:\USERS\김한샘\DOCUMENTS\프로젝트 관리 폴더\PROJECTGITLAB\DUMMY\DUMMYMONITER\DUMMYMONITER\DEBUG\VC141.PDB
C:\USERS\김한샘\DOCUMENTS\프로젝트 관리 폴더\PROJECTGITLAB\DUMMY\DUMMYMONITER\DUMMYMONITER\DEBUG\VC141.IDB
C:\USERS\김한샘\DOCUMENTS\프로젝트 관리 폴더\PROJECTGITLAB\DUMMY\DUMMYMONITER\DUMMYMONITER\DEBUG\UPDATETHREAD.OBJ
C:\USERS\김한샘\DOCUMENTS\프로젝트 관리 폴더\PROJECTGITLAB\DUMMY\DUMMYMONITER\DUMMYMONITER\DEBUG\STREAM.OBJ
C:\USERS\김한샘\DOCUMENTS\프로젝트 관리 폴더\PROJECTGITLAB\DUMMY\DUMMYMONITER\DUMMYMONITER\DEBUG\GLOBAL.OBJ
C:\USERS\김한샘\DOCUMENTS\프로젝트 관리 폴더\PROJECTGITLAB\DUMMY\DUMMYMONITER\DUMMYMONITER\DEBUG\GETPHSCIALPROCESSORCPP.OBJ
C:\USERS\김한샘\DOCUMENTS\프로젝트 관리 폴더\PROJECTGITLAB\DUMMY\DUMMYMONITER\DUMMYMONITER\DEBUG\DUMMYMONITER.OBJ
C:\USERS\김한샘\DOCUMENTS\프로젝트 관리 폴더\PROJECTGITLAB\DUMMY\DUMMYMONITER\DUMMYMONITER\DEBUG\DUMMYAVATAR.OBJ
C:\USERS\김한샘\DOCUMENTS\프로젝트 관리 폴더\PROJECTGITLAB\DUMMY\DUMMYMONITER\DUMMYMONITER\DEBUG\DIRECTGRAPHICS.OBJ
C:\USERS\김한샘\DOCUMENTS\프로젝트 관리 폴더\PROJECTGITLAB\DUMMY\DUMMYMONITER\DUMMYMONITER\DEBUG\CONNECTTHREAD.OBJ
^C:\USERS\김한샘\DOCUMENTS\프로젝트 관리 폴더\PROJECTGITLAB\DUMMY\DUMMYMONITER\DUMMYMONITER\PROCESSEXECUTE.CPP|C:\USERS\김한샘\DOCUMENTS\프로젝트 관리 폴더\PROJECTGITLAB\DUMMY\DUMMYMONITER\DUMMYMONITER\WORKERTHREAD.CPP
C:\USERS\김한샘\DOCUMENTS\프로젝트 관리 폴더\PROJECTGITLAB\DUMMY\DUMMYMONITER\DUMMYMONITER\DEBUG\VC141.PDB
C:\USERS\김한샘\DOCUMENTS\프로젝트 관리 폴더\PROJECTGITLAB\DUMMY\DUMMYMONITER\DUMMYMONITER\DEBUG\VC141.IDB
C:\USERS\김한샘\DOCUMENTS\프로젝트 관리 폴더\PROJECTGITLAB\DUMMY\DUMMYMONITER\DUMMYMONITER\DEBUG\PROCESSEXECUTE.OBJ
^C:\USERS\김한샘\DOCUMENTS\프로젝트 관리 폴더\PROJECTGITLAB\DUMMY\DUMMYMONITER\DUMMYMONITER\STDAFX.CPP
C:\USERS\김한샘\DOCUMENTS\프로젝트 관리 폴더\PROJECTGITLAB\DUMMY\DUMMYMONITER\DUMMYMONITER\DEBUG\DUMMYMONITER.PCH
C:\USERS\김한샘\DOCUMENTS\프로젝트 관리 폴더\PROJECTGITLAB\DUMMY\DUMMYMONITER\DUMMYMONITER\DEBUG\VC141.PDB
C:\USERS\김한샘\DOCUMENTS\프로젝트 관리 폴더\PROJECTGITLAB\DUMMY\DUMMYMONITER\DUMMYMONITER\DEBUG\VC141.IDB
C:\USERS\김한샘\DOCUMENTS\프로젝트 관리 폴더\PROJECTGITLAB\DUMMY\DUMMYMONITER\DUMMYMONITER\DEBUG\STDAFX.OBJ
^C:\USERS\김한샘\DOCUMENTS\프로젝트 관리 폴더\PROJECTGITLAB\DUMMY\DUMMYMONITER\DUMMYMONITER\CONNECTTHREAD.CPP|C:\USERS\김한샘\DOCUMENTS\프로젝트 관리 폴더\PROJECTGITLAB\DUMMY\DUMMYMONITER\DUMMYMONITER\DIRECTGRAPHICS.CPP|C:\USERS\김한샘\DOCUMENTS\프로젝트 관리 폴더\PROJECTGITLAB\DUMMY\DUMMYMONITER\DUMMYMONITER\DUMMYAVATAR.CPP|C:\USERS\김한샘\DOCUMENTS\프로젝트 관리 폴더\PROJECTGITLAB\DUMMY\DUMMYMONITER\DUMMYMONITER\DUMMYMONITER.CPP|C:\USERS\김한샘\DOCUMENTS\프로젝트 관리 폴더\PROJECTGITLAB\DUMMY\DUMMYMONITER\DUMMYMONITER\GETPHSCIALPROCESSORCPP.CPP|C:\USERS\김한샘\DOCUMENTS\프로젝트 관리 폴더\PROJECTGITLAB\DUMMY\DUMMYMONITER\DUMMYMONITER\GLOBAL.CPP|C:\USERS\김한샘\DOCUMENTS\프로젝트 관리 폴더\PROJECTGITLAB\DUMMY\DUMMYMONITER\DUMMYMONITER\PROCESSEXECUTE.CPP|C:\USERS\김한샘\DOCUMENTS\프로젝트 관리 폴더\PROJECTGITLAB\DUMMY\DUMMYMONITER\DUMMYMONITER\RANDOMMT.CPP|C:\USERS\김한샘\DOCUMENTS\프로젝트 관리 폴더\PROJECTGITLAB\DUMMY\DUMMYMONITER\DUMMYMONITER\STREAM.CPP|C:\USERS\김한샘\DOCUMENTS\프로젝트 관리 폴더\PROJECTGITLAB\DUMMY\DUMMYMONITER\DUMMYMONITER\UPDATETHREAD.CPP|C:\USERS\김한샘\DOCUMENTS\프로젝트 관리 폴더\PROJECTGITLAB\DUMMY\DUMMYMONITER\DUMMYMONITER\WORKERTHREAD.CPP
C:\USERS\김한샘\DOCUMENTS\프로젝트 관리 폴더\PROJECTGITLAB\DUMMY\DUMMYMONITER\DUMMYMONITER\DEBUG\VC141.PDB
C:\USERS\김한샘\DOCUMENTS\프로젝트 관리 폴더\PROJECTGITLAB\DUMMY\DUMMYMONITER\DUMMYMONITER\DEBUG\VC141.IDB
C:\USERS\김한샘\DOCUMENTS\프로젝트 관리 폴더\PROJECTGITLAB\DUMMY\DUMMYMONITER\DUMMYMONITER\DEBUG\WORKERTHREAD.OBJ
C:\USERS\김한샘\DOCUMENTS\프로젝트 관리 폴더\PROJECTGITLAB\DUMMY\DUMMYMONITER\DUMMYMONITER\DEBUG\UPDATETHREAD.OBJ
C:\USERS\김한샘\DOCUMENTS\프로젝트 관리 폴더\PROJECTGITLAB\DUMMY\DUMMYMONITER\DUMMYMONITER\DEBUG\STREAM.OBJ
C:\USERS\김한샘\DOCUMENTS\프로젝트 관리 폴더\PROJECTGITLAB\DUMMY\DUMMYMONITER\DUMMYMONITER\DEBUG\PROCESSEXECUTE.OBJ
C:\USERS\김한샘\DOCUMENTS\프로젝트 관리 폴더\PROJECTGITLAB\DUMMY\DUMMYMONITER\DUMMYMONITER\DEBUG\GLOBAL.OBJ
C:\USERS\김한샘\DOCUMENTS\프로젝트 관리 폴더\PROJECTGITLAB\DUMMY\DUMMYMONITER\DUMMYMONITER\DEBUG\GETPHSCIALPROCESSORCPP.OBJ
C:\USERS\김한샘\DOCUMENTS\프로젝트 관리 폴더\PROJECTGITLAB\DUMMY\DUMMYMONITER\DUMMYMONITER\DEBUG\DUMMYMONITER.OBJ
C:\USERS\김한샘\DOCUMENTS\프로젝트 관리 폴더\PROJECTGITLAB\DUMMY\DUMMYMONITER\DUMMYMONITER\DEBUG\DUMMYAVATAR.OBJ
C:\USERS\김한샘\DOCUMENTS\프로젝트 관리 폴더\PROJECTGITLAB\DUMMY\DUMMYMONITER\DUMMYMONITER\DEBUG\DIRECTGRAPHICS.OBJ
C:\USERS\김한샘\DOCUMENTS\프로젝트 관리 폴더\PROJECTGITLAB\DUMMY\DUMMYMONITER\DUMMYMONITER\DEBUG\CONNECTTHREAD.OBJ
^C:\USERS\김한샘\DOCUMENTS\프로젝트 관리 폴더\PROJECTGITLAB\DUMMY\DUMMYMONITER\DUMMYMONITER\CONNECTTHREAD.CPP
C:\USERS\김한샘\DOCUMENTS\프로젝트 관리 폴더\PROJECTGITLAB\DUMMY\DUMMYMONITER\DUMMYMONITER\DEBUG\CONNECTTHREAD.OBJ
^C:\USERS\김한샘\DOCUMENTS\프로젝트 관리 폴더\PROJECTGITLAB\DUMMY\DUMMYMONITER\DUMMYMONITER\DUMMYAVATAR.CPP
C:\USERS\김한샘\DOCUMENTS\프로젝트 관리 폴더\PROJECTGITLAB\DUMMY\DUMMYMONITER\DUMMYMONITER\DEBUG\DUMMYAVATAR.OBJ
^C:\USERS\김한샘\DOCUMENTS\프로젝트 관리 폴더\PROJECTGITLAB\DUMMY\DUMMYMONITER\DUMMYMONITER\GETPHSCIALPROCESSORCPP.CPP
C:\USERS\김한샘\DOCUMENTS\프로젝트 관리 폴더\PROJECTGITLAB\DUMMY\DUMMYMONITER\DUMMYMONITER\DEBUG\GETPHSCIALPROCESSORCPP.OBJ
^C:\USERS\김한샘\DOCUMENTS\프로젝트 관리 폴더\PROJECTGITLAB\DUMMY\DUMMYMONITER\DUMMYMONITER\GLOBAL.CPP
C:\USERS\김한샘\DOCUMENTS\프로젝트 관리 폴더\PROJECTGITLAB\DUMMY\DUMMYMONITER\DUMMYMONITER\DEBUG\GLOBAL.OBJ
^C:\USERS\김한샘\DOCUMENTS\프로젝트 관리 폴더\PROJECTGITLAB\DUMMY\DUMMYMONITER\DUMMYMONITER\PROCESSEXECUTE.CPP
C:\USERS\김한샘\DOCUMENTS\프로젝트 관리 폴더\PROJECTGITLAB\DUMMY\DUMMYMONITER\DUMMYMONITER\DEBUG\PROCESSEXECUTE.OBJ
^C:\USERS\김한샘\DOCUMENTS\프로젝트 관리 폴더\PROJECTGITLAB\DUMMY\DUMMYMONITER\DUMMYMONITER\STREAM.CPP
C:\USERS\김한샘\DOCUMENTS\프로젝트 관리 폴더\PROJECTGITLAB\DUMMY\DUMMYMONITER\DUMMYMONITER\DEBUG\STREAM.OBJ
^C:\USERS\김한샘\DOCUMENTS\프로젝트 관리 폴더\PROJECTGITLAB\DUMMY\DUMMYMONITER\DUMMYMONITER\UPDATETHREAD.CPP
C:\USERS\김한샘\DOCUMENTS\프로젝트 관리 폴더\PROJECTGITLAB\DUMMY\DUMMYMONITER\DUMMYMONITER\DEBUG\UPDATETHREAD.OBJ
^C:\USERS\김한샘\DOCUMENTS\프로젝트 관리 폴더\PROJECTGITLAB\DUMMY\DUMMYMONITER\DUMMYMONITER\WORKERTHREAD.CPP
C:\USERS\김한샘\DOCUMENTS\프로젝트 관리 폴더\PROJECTGITLAB\DUMMY\DUMMYMONITER\DUMMYMONITER\DEBUG\WORKERTHREAD.OBJ
^C:\USERS\김한샘\DOCUMENTS\프로젝트 관리 폴더\PROJECTGITLAB\DUMMY\DUMMYMONITER\DUMMYMONITER\RANDOMMT.CPP
C:\USERS\김한샘\DOCUMENTS\프로젝트 관리 폴더\PROJECTGITLAB\DUMMY\DUMMYMONITER\DUMMYMONITER\DEBUG\VC141.PDB
C:\USERS\김한샘\DOCUMENTS\프로젝트 관리 폴더\PROJECTGITLAB\DUMMY\DUMMYMONITER\DUMMYMONITER\DEBUG\VC141.IDB
C:\USERS\김한샘\DOCUMENTS\프로젝트 관리 폴더\PROJECTGITLAB\DUMMY\DUMMYMONITER\DUMMYMONITER\DEBUG\RANDOMMT.OBJ
^C:\USERS\김한샘\DOCUMENTS\프로젝트 관리 폴더\PROJECTGITLAB\DUMMY\DUMMYMONITER\DUMMYMONITER\DUMMYMONITER.CPP
C:\USERS\김한샘\DOCUMENTS\프로젝트 관리 폴더\PROJECTGITLAB\DUMMY\DUMMYMONITER\DUMMYMONITER\DEBUG\VC141.PDB
C:\USERS\김한샘\DOCUMENTS\프로젝트 관리 폴더\PROJECTGITLAB\DUMMY\DUMMYMONITER\DUMMYMONITER\DEBUG\VC141.IDB
C:\USERS\김한샘\DOCUMENTS\프로젝트 관리 폴더\PROJECTGITLAB\DUMMY\DUMMYMONITER\DUMMYMONITER\DEBUG\DUMMYMONITER.OBJ
^C:\USERS\김한샘\DOCUMENTS\프로젝트 관리 폴더\PROJECTGITLAB\DUMMY\DUMMYMONITER\DUMMYMONITER\DIRECTGRAPHICS.CPP
C:\USERS\김한샘\DOCUMENTS\프로젝트 관리 폴더\PROJECTGITLAB\DUMMY\DUMMYMONITER\DUMMYMONITER\DEBUG\VC141.PDB
C:\USERS\김한샘\DOCUMENTS\프로젝트 관리 폴더\PROJECTGITLAB\DUMMY\DUMMYMONITER\DUMMYMONITER\DEBUG\VC141.IDB
C:\USERS\김한샘\DOCUMENTS\프로젝트 관리 폴더\PROJECTGITLAB\DUMMY\DUMMYMONITER\DUMMYMONITER\DEBUG\DIRECTGRAPHICS.OBJ
