^C:\USERS\김한샘\DOCUMENTS\프로젝트 관리 폴더\PROJECTGITLAB\DUMMY\DUMMYMONITER\DUMMYMONITER\X64\RELEASE\CONNECTTHREAD.OBJ|C:\USERS\김한샘\DOCUMENTS\프로젝트 관리 폴더\PROJECTGITLAB\DUMMY\DUMMYMONITER\DUMMYMONITER\X64\RELEASE\DIRECTGRAPHICS.OBJ|C:\USERS\김한샘\DOCUMENTS\프로젝트 관리 폴더\PROJECTGITLAB\DUMMY\DUMMYMONITER\DUMMYMONITER\X64\RELEASE\DUMMYAVATAR.OBJ|C:\USERS\김한샘\DOCUMENTS\프로젝트 관리 폴더\PROJECTGITLAB\DUMMY\DUMMYMONITER\DUMMYMONITER\X64\RELEASE\DUMMYMONITER.OBJ|C:\USERS\김한샘\DOCUMENTS\프로젝트 관리 폴더\PROJECTGITLAB\DUMMY\DUMMYMONITER\DUMMYMONITER\X64\RELEASE\DUMMYMONITER.RES|C:\USERS\김한샘\DOCUMENTS\프로젝트 관리 폴더\PROJECTGITLAB\DUMMY\DUMMYMONITER\DUMMYMONITER\X64\RELEASE\GETPHSCIALPROCESSORCPP.OBJ|C:\USERS\김한샘\DOCUMENTS\프로젝트 관리 폴더\PROJECTGITLAB\DUMMY\DUMMYMONITER\DUMMYMONITER\X64\RELEASE\GLOBAL.OBJ|C:\USERS\김한샘\DOCUMENTS\프로젝트 관리 폴더\PROJECTGITLAB\DUMMY\DUMMYMONITER\DUMMYMONITER\X64\RELEASE\PROCESSEXECUTE.OBJ|C:\USERS\김한샘\DOCUMENTS\프로젝트 관리 폴더\PROJECTGITLAB\DUMMY\DUMMYMONITER\DUMMYMONITER\X64\RELEASE\RANDOMMT.OBJ|C:\USERS\김한샘\DOCUMENTS\프로젝트 관리 폴더\PROJECTGITLAB\DUMMY\DUMMYMONITER\DUMMYMONITER\X64\RELEASE\STDAFX.OBJ|C:\USERS\김한샘\DOCUMENTS\프로젝트 관리 폴더\PROJECTGITLAB\DUMMY\DUMMYMONITER\DUMMYMONITER\X64\RELEASE\STREAM.OBJ|C:\USERS\김한샘\DOCUMENTS\프로젝트 관리 폴더\PROJECTGITLAB\DUMMY\DUMMYMONITER\DUMMYMONITER\X64\RELEASE\UPDATETHREAD.OBJ|C:\USERS\김한샘\DOCUMENTS\프로젝트 관리 폴더\PROJECTGITLAB\DUMMY\DUMMYMONITER\DUMMYMONITER\X64\RELEASE\WORKERTHREAD.OBJ
C:\PROGRAM FILES (X86)\WINDOWS KITS\10\LIB\10.0.17134.0\UM\X64\KERNEL32.LIB
C:\PROGRAM FILES (X86)\WINDOWS KITS\10\LIB\10.0.17134.0\UM\X64\USER32.LIB
C:\PROGRAM FILES (X86)\WINDOWS KITS\10\LIB\10.0.17134.0\UM\X64\GDI32.LIB
C:\PROGRAM FILES (X86)\WINDOWS KITS\10\LIB\10.0.17134.0\UM\X64\WINSPOOL.LIB
C:\PROGRAM FILES (X86)\WINDOWS KITS\10\LIB\10.0.17134.0\UM\X64\COMDLG32.LIB
C:\PROGRAM FILES (X86)\WINDOWS KITS\10\LIB\10.0.17134.0\UM\X64\ADVAPI32.LIB
C:\PROGRAM FILES (X86)\WINDOWS KITS\10\LIB\10.0.17134.0\UM\X64\SHELL32.LIB
C:\PROGRAM FILES (X86)\WINDOWS KITS\10\LIB\10.0.17134.0\UM\X64\OLE32.LIB
C:\PROGRAM FILES (X86)\WINDOWS KITS\10\LIB\10.0.17134.0\UM\X64\OLEAUT32.LIB
C:\PROGRAM FILES (X86)\WINDOWS KITS\10\LIB\10.0.17134.0\UM\X64\UUID.LIB
C:\PROGRAM FILES (X86)\WINDOWS KITS\10\LIB\10.0.17134.0\UM\X64\ODBC32.LIB
C:\PROGRAM FILES (X86)\WINDOWS KITS\10\LIB\10.0.17134.0\UM\X64\ODBCCP32.LIB
C:\USERS\김한샘\DOCUMENTS\프로젝트 관리 폴더\PROJECTGITLAB\DUMMY\DUMMYMONITER\DUMMYMONITER\X64\RELEASE\DUMMYMONITER.RES
C:\USERS\김한샘\DOCUMENTS\프로젝트 관리 폴더\PROJECTGITLAB\DUMMY\DUMMYMONITER\DUMMYMONITER\X64\RELEASE\CONNECTTHREAD.OBJ
C:\USERS\김한샘\DOCUMENTS\프로젝트 관리 폴더\PROJECTGITLAB\DUMMY\DUMMYMONITER\DUMMYMONITER\X64\RELEASE\DIRECTGRAPHICS.OBJ
C:\USERS\김한샘\DOCUMENTS\프로젝트 관리 폴더\PROJECTGITLAB\DUMMY\DUMMYMONITER\DUMMYMONITER\X64\RELEASE\DUMMYAVATAR.OBJ
C:\USERS\김한샘\DOCUMENTS\프로젝트 관리 폴더\PROJECTGITLAB\DUMMY\DUMMYMONITER\DUMMYMONITER\X64\RELEASE\DUMMYMONITER.OBJ
C:\USERS\김한샘\DOCUMENTS\프로젝트 관리 폴더\PROJECTGITLAB\DUMMY\DUMMYMONITER\DUMMYMONITER\X64\RELEASE\GETPHSCIALPROCESSORCPP.OBJ
C:\USERS\김한샘\DOCUMENTS\프로젝트 관리 폴더\PROJECTGITLAB\DUMMY\DUMMYMONITER\DUMMYMONITER\X64\RELEASE\GLOBAL.OBJ
C:\USERS\김한샘\DOCUMENTS\프로젝트 관리 폴더\PROJECTGITLAB\DUMMY\DUMMYMONITER\DUMMYMONITER\X64\RELEASE\PROCESSEXECUTE.OBJ
C:\USERS\김한샘\DOCUMENTS\프로젝트 관리 폴더\PROJECTGITLAB\DUMMY\DUMMYMONITER\DUMMYMONITER\X64\RELEASE\RANDOMMT.OBJ
C:\USERS\김한샘\DOCUMENTS\프로젝트 관리 폴더\PROJECTGITLAB\DUMMY\DUMMYMONITER\DUMMYMONITER\X64\RELEASE\STDAFX.OBJ
C:\USERS\김한샘\DOCUMENTS\프로젝트 관리 폴더\PROJECTGITLAB\DUMMY\DUMMYMONITER\DUMMYMONITER\X64\RELEASE\STREAM.OBJ
C:\USERS\김한샘\DOCUMENTS\프로젝트 관리 폴더\PROJECTGITLAB\DUMMY\DUMMYMONITER\DUMMYMONITER\X64\RELEASE\UPDATETHREAD.OBJ
C:\USERS\김한샘\DOCUMENTS\프로젝트 관리 폴더\PROJECTGITLAB\DUMMY\DUMMYMONITER\DUMMYMONITER\X64\RELEASE\WORKERTHREAD.OBJ
C:\WINDOWS\GLOBALIZATION\SORTING\SORTDEFAULT.NLS
C:\PROGRAM FILES (X86)\MICROSOFT VISUAL STUDIO\2017\COMMUNITY\VC\TOOLS\MSVC\14.14.26428\BIN\HOSTX86\X64\C2.DLL
C:\PROGRAM FILES (X86)\WINDOWS KITS\10\LIB\10.0.17134.0\UM\X64\D2D1.LIB
C:\PROGRAM FILES (X86)\WINDOWS KITS\10\LIB\10.0.17134.0\UM\X64\DWRITE.LIB
C:\PROGRAM FILES (X86)\WINDOWS KITS\10\LIB\10.0.17134.0\UM\X64\WINDOWSCODECS.LIB
C:\PROGRAM FILES (X86)\MICROSOFT VISUAL STUDIO\2017\COMMUNITY\VC\TOOLS\MSVC\14.14.26428\LIB\X64\MSVCPRT.LIB
C:\PROGRAM FILES (X86)\WINDOWS KITS\10\LIB\10.0.17134.0\UM\X64\WS2_32.LIB
C:\USERS\김한샘\DOCUMENTS\프로젝트 관리 폴더\PROJECTGITLAB\DUMMY\DUMMYMONITER\DUMMYMONITER\LIB\TBB.LIB
C:\USERS\김한샘\DOCUMENTS\프로젝트 관리 폴더\PROJECTGITLAB\DUMMY\DUMMYMONITER\DUMMYMONITER\LIB\TBB_DEBUG.LIB
C:\PROGRAM FILES (X86)\MICROSOFT VISUAL STUDIO\2017\COMMUNITY\VC\TOOLS\MSVC\14.14.26428\LIB\X64\MSVCRT.LIB
C:\PROGRAM FILES (X86)\MICROSOFT VISUAL STUDIO\2017\COMMUNITY\VC\TOOLS\MSVC\14.14.26428\LIB\X64\OLDNAMES.LIB
C:\PROGRAM FILES (X86)\MICROSOFT VISUAL STUDIO\2017\COMMUNITY\VC\TOOLS\MSVC\14.14.26428\LIB\X64\VCRUNTIME.LIB
C:\PROGRAM FILES (X86)\WINDOWS KITS\10\LIB\10.0.17134.0\UCRT\X64\UCRT.LIB
C:\PROGRAM FILES (X86)\MICROSOFT VISUAL STUDIO\2017\COMMUNITY\VC\TOOLS\MSVC\14.14.26428\BIN\HOSTX86\X64\1042\LINKUI.DLL
C:\PROGRAM FILES (X86)\WINDOWS KITS\10\BIN\10.0.17134.0\X86\RC.EXE
C:\PROGRAM FILES (X86)\MICROSOFT VISUAL STUDIO\2017\COMMUNITY\VC\TOOLS\MSVC\14.14.26428\BIN\HOSTX86\X86\CVTRES.EXE
C:\WINDOWS\SYSTEM32\TZRES.DLL
C:\PROGRAM FILES (X86)\MICROSOFT VISUAL STUDIO\2017\COMMUNITY\VC\TOOLS\MSVC\14.14.26428\BIN\HOSTX86\X64\VCTIP.EXE
