^C:\USERS\김한샘\DOCUMENTS\프로젝트 관리 폴더\PROJECTGITLAB\SERVER\TESTCLIENTENV\PPLIB\PPLIB\STDAFX.CPP
C:\PROGRAM FILES (X86)\MICROSOFT VISUAL STUDIO\2017\COMMUNITY\VC\TOOLS\MSVC\14.14.26428\BIN\HOSTX86\X86\1042\CLUI.DLL
C:\WINDOWS\GLOBALIZATION\SORTING\SORTDEFAULT.NLS
C:\WINDOWS\SYSTEM32\TZRES.DLL
C:\USERS\김한샘\DOCUMENTS\프로젝트 관리 폴더\PROJECTGITLAB\SERVER\TESTCLIENTENV\PPLIB\PPLIB\STDAFX.H
C:\USERS\김한샘\DOCUMENTS\프로젝트 관리 폴더\PROJECTGITLAB\SERVER\TESTCLIENTENV\PPLIB\PPLIB\TARGETVER.H
C:\PROGRAM FILES (X86)\WINDOWS KITS\10\INCLUDE\10.0.17134.0\SHARED\SDKDDKVER.H
