^C:\USERS\김한샘\DOCUMENTS\프로젝트 관리 폴더\PROJECTGITLAB\DUMMY\DUMMYMONITER\DUMMYMONITER\STDAFX.CPP
/c /I"C:\USERS\김한샘\DOCUMENTS\프로젝트 관리 폴더\PROJECTGITLAB\DUMMY\DUMMYMONITER\DUMMYMONITER\INCLUDE" /ZI /nologo /W3 /WX- /diagnostics:classic /sdl /Od /D _DEBUG /D _WINDOWS /D _UNICODE /D UNICODE /Gm- /EHsc /RTC1 /MDd /GS /fp:precise /permissive- /Zc:wchar_t /Zc:forScope /Zc:inline /Yc"stdafx.h" /Fp"X64\DEBUG\DUMMYMONITER.PCH" /Fo"X64\DEBUG\\" /Fd"X64\DEBUG\VC141.PDB" /Gd /TP /FC C:\USERS\김한샘\DOCUMENTS\프로젝트 관리 폴더\PROJECTGITLAB\DUMMY\DUMMYMONITER\DUMMYMONITER\STDAFX.CPP
^C:\USERS\김한샘\DOCUMENTS\프로젝트 관리 폴더\PROJECTGITLAB\DUMMY\DUMMYMONITER\DUMMYMONITER\CONNECTTHREAD.CPP
/c /I"C:\USERS\김한샘\DOCUMENTS\프로젝트 관리 폴더\PROJECTGITLAB\DUMMY\DUMMYMONITER\DUMMYMONITER\INCLUDE" /ZI /nologo /W3 /WX- /diagnostics:classic /sdl /Od /D _DEBUG /D _WINDOWS /D _UNICODE /D UNICODE /Gm- /EHsc /RTC1 /MDd /GS /fp:precise /permissive- /Zc:wchar_t /Zc:forScope /Zc:inline /Yu"stdafx.h" /Fp"X64\DEBUG\DUMMYMONITER.PCH" /Fo"X64\DEBUG\\" /Fd"X64\DEBUG\VC141.PDB" /Gd /TP /FC C:\USERS\김한샘\DOCUMENTS\프로젝트 관리 폴더\PROJECTGITLAB\DUMMY\DUMMYMONITER\DUMMYMONITER\CONNECTTHREAD.CPP
^C:\USERS\김한샘\DOCUMENTS\프로젝트 관리 폴더\PROJECTGITLAB\DUMMY\DUMMYMONITER\DUMMYMONITER\DIRECTGRAPHICS.CPP
/c /I"C:\USERS\김한샘\DOCUMENTS\프로젝트 관리 폴더\PROJECTGITLAB\DUMMY\DUMMYMONITER\DUMMYMONITER\INCLUDE" /ZI /nologo /W3 /WX- /diagnostics:classic /sdl /Od /D _DEBUG /D _WINDOWS /D _UNICODE /D UNICODE /Gm- /EHsc /RTC1 /MDd /GS /fp:precise /permissive- /Zc:wchar_t /Zc:forScope /Zc:inline /Yu"stdafx.h" /Fp"X64\DEBUG\DUMMYMONITER.PCH" /Fo"X64\DEBUG\\" /Fd"X64\DEBUG\VC141.PDB" /Gd /TP /FC C:\USERS\김한샘\DOCUMENTS\프로젝트 관리 폴더\PROJECTGITLAB\DUMMY\DUMMYMONITER\DUMMYMONITER\DIRECTGRAPHICS.CPP
^C:\USERS\김한샘\DOCUMENTS\프로젝트 관리 폴더\PROJECTGITLAB\DUMMY\DUMMYMONITER\DUMMYMONITER\DUMMYAVATAR.CPP
/c /I"C:\USERS\김한샘\DOCUMENTS\프로젝트 관리 폴더\PROJECTGITLAB\DUMMY\DUMMYMONITER\DUMMYMONITER\INCLUDE" /ZI /nologo /W3 /WX- /diagnostics:classic /sdl /Od /D _DEBUG /D _WINDOWS /D _UNICODE /D UNICODE /Gm- /EHsc /RTC1 /MDd /GS /fp:precise /permissive- /Zc:wchar_t /Zc:forScope /Zc:inline /Yu"stdafx.h" /Fp"X64\DEBUG\DUMMYMONITER.PCH" /Fo"X64\DEBUG\\" /Fd"X64\DEBUG\VC141.PDB" /Gd /TP /FC C:\USERS\김한샘\DOCUMENTS\프로젝트 관리 폴더\PROJECTGITLAB\DUMMY\DUMMYMONITER\DUMMYMONITER\DUMMYAVATAR.CPP
^C:\USERS\김한샘\DOCUMENTS\프로젝트 관리 폴더\PROJECTGITLAB\DUMMY\DUMMYMONITER\DUMMYMONITER\GETPHSCIALPROCESSORCPP.CPP
/c /I"C:\USERS\김한샘\DOCUMENTS\프로젝트 관리 폴더\PROJECTGITLAB\DUMMY\DUMMYMONITER\DUMMYMONITER\INCLUDE" /ZI /nologo /W3 /WX- /diagnostics:classic /sdl /Od /D _DEBUG /D _WINDOWS /D _UNICODE /D UNICODE /Gm- /EHsc /RTC1 /MDd /GS /fp:precise /permissive- /Zc:wchar_t /Zc:forScope /Zc:inline /Yu"stdafx.h" /Fp"X64\DEBUG\DUMMYMONITER.PCH" /Fo"X64\DEBUG\\" /Fd"X64\DEBUG\VC141.PDB" /Gd /TP /FC C:\USERS\김한샘\DOCUMENTS\프로젝트 관리 폴더\PROJECTGITLAB\DUMMY\DUMMYMONITER\DUMMYMONITER\GETPHSCIALPROCESSORCPP.CPP
^C:\USERS\김한샘\DOCUMENTS\프로젝트 관리 폴더\PROJECTGITLAB\DUMMY\DUMMYMONITER\DUMMYMONITER\GLOBAL.CPP
/c /I"C:\USERS\김한샘\DOCUMENTS\프로젝트 관리 폴더\PROJECTGITLAB\DUMMY\DUMMYMONITER\DUMMYMONITER\INCLUDE" /ZI /nologo /W3 /WX- /diagnostics:classic /sdl /Od /D _DEBUG /D _WINDOWS /D _UNICODE /D UNICODE /Gm- /EHsc /RTC1 /MDd /GS /fp:precise /permissive- /Zc:wchar_t /Zc:forScope /Zc:inline /Yu"stdafx.h" /Fp"X64\DEBUG\DUMMYMONITER.PCH" /Fo"X64\DEBUG\\" /Fd"X64\DEBUG\VC141.PDB" /Gd /TP /FC C:\USERS\김한샘\DOCUMENTS\프로젝트 관리 폴더\PROJECTGITLAB\DUMMY\DUMMYMONITER\DUMMYMONITER\GLOBAL.CPP
^C:\USERS\김한샘\DOCUMENTS\프로젝트 관리 폴더\PROJECTGITLAB\DUMMY\DUMMYMONITER\DUMMYMONITER\PROCESSEXECUTE.CPP
/c /I"C:\USERS\김한샘\DOCUMENTS\프로젝트 관리 폴더\PROJECTGITLAB\DUMMY\DUMMYMONITER\DUMMYMONITER\INCLUDE" /ZI /nologo /W3 /WX- /diagnostics:classic /sdl /Od /D _DEBUG /D _WINDOWS /D _UNICODE /D UNICODE /Gm- /EHsc /RTC1 /MDd /GS /fp:precise /permissive- /Zc:wchar_t /Zc:forScope /Zc:inline /Yu"stdafx.h" /Fp"X64\DEBUG\DUMMYMONITER.PCH" /Fo"X64\DEBUG\\" /Fd"X64\DEBUG\VC141.PDB" /Gd /TP /FC C:\USERS\김한샘\DOCUMENTS\프로젝트 관리 폴더\PROJECTGITLAB\DUMMY\DUMMYMONITER\DUMMYMONITER\PROCESSEXECUTE.CPP
^C:\USERS\김한샘\DOCUMENTS\프로젝트 관리 폴더\PROJECTGITLAB\DUMMY\DUMMYMONITER\DUMMYMONITER\RANDOMMT.CPP
/c /I"C:\USERS\김한샘\DOCUMENTS\프로젝트 관리 폴더\PROJECTGITLAB\DUMMY\DUMMYMONITER\DUMMYMONITER\INCLUDE" /ZI /nologo /W3 /WX- /diagnostics:classic /sdl /Od /D _DEBUG /D _WINDOWS /D _UNICODE /D UNICODE /Gm- /EHsc /RTC1 /MDd /GS /fp:precise /permissive- /Zc:wchar_t /Zc:forScope /Zc:inline /Yu"stdafx.h" /Fp"X64\DEBUG\DUMMYMONITER.PCH" /Fo"X64\DEBUG\\" /Fd"X64\DEBUG\VC141.PDB" /Gd /TP /FC C:\USERS\김한샘\DOCUMENTS\프로젝트 관리 폴더\PROJECTGITLAB\DUMMY\DUMMYMONITER\DUMMYMONITER\RANDOMMT.CPP
^C:\USERS\김한샘\DOCUMENTS\프로젝트 관리 폴더\PROJECTGITLAB\DUMMY\DUMMYMONITER\DUMMYMONITER\STREAM.CPP
/c /I"C:\USERS\김한샘\DOCUMENTS\프로젝트 관리 폴더\PROJECTGITLAB\DUMMY\DUMMYMONITER\DUMMYMONITER\INCLUDE" /ZI /nologo /W3 /WX- /diagnostics:classic /sdl /Od /D _DEBUG /D _WINDOWS /D _UNICODE /D UNICODE /Gm- /EHsc /RTC1 /MDd /GS /fp:precise /permissive- /Zc:wchar_t /Zc:forScope /Zc:inline /Yu"stdafx.h" /Fp"X64\DEBUG\DUMMYMONITER.PCH" /Fo"X64\DEBUG\\" /Fd"X64\DEBUG\VC141.PDB" /Gd /TP /FC C:\USERS\김한샘\DOCUMENTS\프로젝트 관리 폴더\PROJECTGITLAB\DUMMY\DUMMYMONITER\DUMMYMONITER\STREAM.CPP
^C:\USERS\김한샘\DOCUMENTS\프로젝트 관리 폴더\PROJECTGITLAB\DUMMY\DUMMYMONITER\DUMMYMONITER\UPDATETHREAD.CPP
/c /I"C:\USERS\김한샘\DOCUMENTS\프로젝트 관리 폴더\PROJECTGITLAB\DUMMY\DUMMYMONITER\DUMMYMONITER\INCLUDE" /ZI /nologo /W3 /WX- /diagnostics:classic /sdl /Od /D _DEBUG /D _WINDOWS /D _UNICODE /D UNICODE /Gm- /EHsc /RTC1 /MDd /GS /fp:precise /permissive- /Zc:wchar_t /Zc:forScope /Zc:inline /Yu"stdafx.h" /Fp"X64\DEBUG\DUMMYMONITER.PCH" /Fo"X64\DEBUG\\" /Fd"X64\DEBUG\VC141.PDB" /Gd /TP /FC C:\USERS\김한샘\DOCUMENTS\프로젝트 관리 폴더\PROJECTGITLAB\DUMMY\DUMMYMONITER\DUMMYMONITER\UPDATETHREAD.CPP
^C:\USERS\김한샘\DOCUMENTS\프로젝트 관리 폴더\PROJECTGITLAB\DUMMY\DUMMYMONITER\DUMMYMONITER\WORKERTHREAD.CPP
/c /I"C:\USERS\김한샘\DOCUMENTS\프로젝트 관리 폴더\PROJECTGITLAB\DUMMY\DUMMYMONITER\DUMMYMONITER\INCLUDE" /ZI /nologo /W3 /WX- /diagnostics:classic /sdl /Od /D _DEBUG /D _WINDOWS /D _UNICODE /D UNICODE /Gm- /EHsc /RTC1 /MDd /GS /fp:precise /permissive- /Zc:wchar_t /Zc:forScope /Zc:inline /Yu"stdafx.h" /Fp"X64\DEBUG\DUMMYMONITER.PCH" /Fo"X64\DEBUG\\" /Fd"X64\DEBUG\VC141.PDB" /Gd /TP /FC C:\USERS\김한샘\DOCUMENTS\프로젝트 관리 폴더\PROJECTGITLAB\DUMMY\DUMMYMONITER\DUMMYMONITER\WORKERTHREAD.CPP
^C:\USERS\김한샘\DOCUMENTS\프로젝트 관리 폴더\PROJECTGITLAB\DUMMY\DUMMYMONITER\DUMMYMONITER\DUMMYMONITER.CPP
/c /I"C:\USERS\김한샘\DOCUMENTS\프로젝트 관리 폴더\PROJECTGITLAB\DUMMY\DUMMYMONITER\DUMMYMONITER\INCLUDE" /ZI /nologo /W3 /WX- /diagnostics:classic /sdl /Od /D _DEBUG /D _WINDOWS /D _UNICODE /D UNICODE /Gm- /EHsc /RTC1 /MDd /GS /fp:precise /permissive- /Zc:wchar_t /Zc:forScope /Zc:inline /Yu"stdafx.h" /Fp"X64\DEBUG\DUMMYMONITER.PCH" /Fo"X64\DEBUG\\" /Fd"X64\DEBUG\VC141.PDB" /Gd /TP /FC C:\USERS\김한샘\DOCUMENTS\프로젝트 관리 폴더\PROJECTGITLAB\DUMMY\DUMMYMONITER\DUMMYMONITER\DUMMYMONITER.CPP
