^C:\USERS\김한샘\DOCUMENTS\프로젝트 관리 폴더\PROJECTGITLAB\DUMMY\DUMMYMONITER\DUMMYMONITER\X64\DEBUG\CONNECTTHREAD.OBJ|C:\USERS\김한샘\DOCUMENTS\프로젝트 관리 폴더\PROJECTGITLAB\DUMMY\DUMMYMONITER\DUMMYMONITER\X64\DEBUG\DIRECTGRAPHICS.OBJ|C:\USERS\김한샘\DOCUMENTS\프로젝트 관리 폴더\PROJECTGITLAB\DUMMY\DUMMYMONITER\DUMMYMONITER\X64\DEBUG\DUMMYAVATAR.OBJ|C:\USERS\김한샘\DOCUMENTS\프로젝트 관리 폴더\PROJECTGITLAB\DUMMY\DUMMYMONITER\DUMMYMONITER\X64\DEBUG\DUMMYMONITER.OBJ|C:\USERS\김한샘\DOCUMENTS\프로젝트 관리 폴더\PROJECTGITLAB\DUMMY\DUMMYMONITER\DUMMYMONITER\X64\DEBUG\DUMMYMONITER.RES|C:\USERS\김한샘\DOCUMENTS\프로젝트 관리 폴더\PROJECTGITLAB\DUMMY\DUMMYMONITER\DUMMYMONITER\X64\DEBUG\GETPHSCIALPROCESSORCPP.OBJ|C:\USERS\김한샘\DOCUMENTS\프로젝트 관리 폴더\PROJECTGITLAB\DUMMY\DUMMYMONITER\DUMMYMONITER\X64\DEBUG\GLOBAL.OBJ|C:\USERS\김한샘\DOCUMENTS\프로젝트 관리 폴더\PROJECTGITLAB\DUMMY\DUMMYMONITER\DUMMYMONITER\X64\DEBUG\PROCESSEXECUTE.OBJ|C:\USERS\김한샘\DOCUMENTS\프로젝트 관리 폴더\PROJECTGITLAB\DUMMY\DUMMYMONITER\DUMMYMONITER\X64\DEBUG\RANDOMMT.OBJ|C:\USERS\김한샘\DOCUMENTS\프로젝트 관리 폴더\PROJECTGITLAB\DUMMY\DUMMYMONITER\DUMMYMONITER\X64\DEBUG\STDAFX.OBJ|C:\USERS\김한샘\DOCUMENTS\프로젝트 관리 폴더\PROJECTGITLAB\DUMMY\DUMMYMONITER\DUMMYMONITER\X64\DEBUG\STREAM.OBJ|C:\USERS\김한샘\DOCUMENTS\프로젝트 관리 폴더\PROJECTGITLAB\DUMMY\DUMMYMONITER\DUMMYMONITER\X64\DEBUG\UPDATETHREAD.OBJ|C:\USERS\김한샘\DOCUMENTS\프로젝트 관리 폴더\PROJECTGITLAB\DUMMY\DUMMYMONITER\DUMMYMONITER\X64\DEBUG\WORKERTHREAD.OBJ
C:\USERS\김한샘\DOCUMENTS\프로젝트 관리 폴더\PROJECTGITLAB\DUMMY\DUMMYMONITER\X64\DEBUG\DUMMYMONITER.EXE
C:\USERS\김한샘\DOCUMENTS\프로젝트 관리 폴더\PROJECTGITLAB\DUMMY\DUMMYMONITER\X64\DEBUG\DUMMYMONITER.ILK
C:\USERS\김한샘\DOCUMENTS\프로젝트 관리 폴더\PROJECTGITLAB\DUMMY\DUMMYMONITER\X64\DEBUG\DUMMYMONITER.PDB
