^C:\USERS\김한샘\DOCUMENTS\프로젝트 관리 폴더\PROJECTGITLAB\SERVER\TESTCLIENTENV\PPLIB\PPLIB\JSON\LIB_JSON\JSON_READER.CPP|C:\USERS\김한샘\DOCUMENTS\프로젝트 관리 폴더\PROJECTGITLAB\SERVER\TESTCLIENTENV\PPLIB\PPLIB\JSON\LIB_JSON\JSON_VALUE.CPP|C:\USERS\김한샘\DOCUMENTS\프로젝트 관리 폴더\PROJECTGITLAB\SERVER\TESTCLIENTENV\PPLIB\PPLIB\JSON\LIB_JSON\JSON_WRITER.CPP
C:\USERS\김한샘\DOCUMENTS\프로젝트 관리 폴더\PROJECTGITLAB\SERVER\TESTCLIENTENV\PPLIB\PPLIB\X64\RELEASE\PPLIB.PDB
C:\USERS\김한샘\DOCUMENTS\프로젝트 관리 폴더\PROJECTGITLAB\SERVER\TESTCLIENTENV\PPLIB\PPLIB\X64\RELEASE\JSON_WRITER.OBJ
C:\USERS\김한샘\DOCUMENTS\프로젝트 관리 폴더\PROJECTGITLAB\SERVER\TESTCLIENTENV\PPLIB\PPLIB\X64\RELEASE\JSON_VALUE.OBJ
C:\USERS\김한샘\DOCUMENTS\프로젝트 관리 폴더\PROJECTGITLAB\SERVER\TESTCLIENTENV\PPLIB\PPLIB\X64\RELEASE\JSON_READER.OBJ
^C:\USERS\김한샘\DOCUMENTS\프로젝트 관리 폴더\PROJECTGITLAB\SERVER\TESTCLIENTENV\PPLIB\PPLIB\JSON\LIB_JSON\JSON_READER.CPP
C:\USERS\김한샘\DOCUMENTS\프로젝트 관리 폴더\PROJECTGITLAB\SERVER\TESTCLIENTENV\PPLIB\PPLIB\X64\RELEASE\PPLIB.PDB
^C:\USERS\김한샘\DOCUMENTS\프로젝트 관리 폴더\PROJECTGITLAB\SERVER\TESTCLIENTENV\PPLIB\PPLIB\JSON\LIB_JSON\JSON_VALUE.CPP
C:\USERS\김한샘\DOCUMENTS\프로젝트 관리 폴더\PROJECTGITLAB\SERVER\TESTCLIENTENV\PPLIB\PPLIB\X64\RELEASE\PPLIB.PDB
^C:\USERS\김한샘\DOCUMENTS\프로젝트 관리 폴더\PROJECTGITLAB\SERVER\TESTCLIENTENV\PPLIB\PPLIB\JSON\LIB_JSON\JSON_WRITER.CPP
C:\USERS\김한샘\DOCUMENTS\프로젝트 관리 폴더\PROJECTGITLAB\SERVER\TESTCLIENTENV\PPLIB\PPLIB\X64\RELEASE\PPLIB.PDB
^C:\USERS\김한샘\DOCUMENTS\프로젝트 관리 폴더\PROJECTGITLAB\SERVER\TESTCLIENTENV\PPLIB\PPLIB\STDAFX.CPP
C:\USERS\김한샘\DOCUMENTS\프로젝트 관리 폴더\PROJECTGITLAB\SERVER\TESTCLIENTENV\PPLIB\PPLIB\X64\RELEASE\PPLIB.PCH
C:\USERS\김한샘\DOCUMENTS\프로젝트 관리 폴더\PROJECTGITLAB\SERVER\TESTCLIENTENV\PPLIB\PPLIB\X64\RELEASE\PPLIB.PDB
C:\USERS\김한샘\DOCUMENTS\프로젝트 관리 폴더\PROJECTGITLAB\SERVER\TESTCLIENTENV\PPLIB\PPLIB\X64\RELEASE\STDAFX.OBJ
^C:\USERS\김한샘\DOCUMENTS\프로젝트 관리 폴더\PROJECTGITLAB\SERVER\TESTCLIENTENV\PPLIB\PPLIB\COMMON\BACKOFFSPINLOCK.CPP|C:\USERS\김한샘\DOCUMENTS\프로젝트 관리 폴더\PROJECTGITLAB\SERVER\TESTCLIENTENV\PPLIB\PPLIB\COMMON\CLOCK.CPP|C:\USERS\김한샘\DOCUMENTS\프로젝트 관리 폴더\PROJECTGITLAB\SERVER\TESTCLIENTENV\PPLIB\PPLIB\COMMON\DIRECTGRAPHICS.CPP|C:\USERS\김한샘\DOCUMENTS\프로젝트 관리 폴더\PROJECTGITLAB\SERVER\TESTCLIENTENV\PPLIB\PPLIB\COMMON\DIRECTIMAGE.CPP|C:\USERS\김한샘\DOCUMENTS\프로젝트 관리 폴더\PROJECTGITLAB\SERVER\TESTCLIENTENV\PPLIB\PPLIB\COMMON\STREAM.CPP|C:\USERS\김한샘\DOCUMENTS\프로젝트 관리 폴더\PROJECTGITLAB\SERVER\TESTCLIENTENV\PPLIB\PPLIB\COMMON\TIMER.CPP|C:\USERS\김한샘\DOCUMENTS\프로젝트 관리 폴더\PROJECTGITLAB\SERVER\TESTCLIENTENV\PPLIB\PPLIB\DIRECTTOOLS\PANELTEXTBOARD.CPP|C:\USERS\김한샘\DOCUMENTS\프로젝트 관리 폴더\PROJECTGITLAB\SERVER\TESTCLIENTENV\PPLIB\PPLIB\NETWORK\EVENTSELECTNETWORK.CPP|C:\USERS\김한샘\DOCUMENTS\프로젝트 관리 폴더\PROJECTGITLAB\SERVER\TESTCLIENTENV\PPLIB\PPLIB\NETWORK\PACKETANALYZER.CPP|C:\USERS\김한샘\DOCUMENTS\프로젝트 관리 폴더\PROJECTGITLAB\SERVER\TESTCLIENTENV\PPLIB\PPLIB\NETWORK\PACKETTYPE.CPP|C:\USERS\김한샘\DOCUMENTS\프로젝트 관리 폴더\PROJECTGITLAB\SERVER\TESTCLIENTENV\PPLIB\PPLIB\NETWORK\SESSION.CPP
C:\USERS\김한샘\DOCUMENTS\프로젝트 관리 폴더\PROJECTGITLAB\SERVER\TESTCLIENTENV\PPLIB\PPLIB\X64\RELEASE\PPLIB.PDB
C:\USERS\김한샘\DOCUMENTS\프로젝트 관리 폴더\PROJECTGITLAB\SERVER\TESTCLIENTENV\PPLIB\PPLIB\X64\RELEASE\SESSION.OBJ
C:\USERS\김한샘\DOCUMENTS\프로젝트 관리 폴더\PROJECTGITLAB\SERVER\TESTCLIENTENV\PPLIB\PPLIB\X64\RELEASE\PACKETTYPE.OBJ
C:\USERS\김한샘\DOCUMENTS\프로젝트 관리 폴더\PROJECTGITLAB\SERVER\TESTCLIENTENV\PPLIB\PPLIB\X64\RELEASE\PACKETANALYZER.OBJ
C:\USERS\김한샘\DOCUMENTS\프로젝트 관리 폴더\PROJECTGITLAB\SERVER\TESTCLIENTENV\PPLIB\PPLIB\X64\RELEASE\EVENTSELECTNETWORK.OBJ
C:\USERS\김한샘\DOCUMENTS\프로젝트 관리 폴더\PROJECTGITLAB\SERVER\TESTCLIENTENV\PPLIB\PPLIB\X64\RELEASE\PANELTEXTBOARD.OBJ
C:\USERS\김한샘\DOCUMENTS\프로젝트 관리 폴더\PROJECTGITLAB\SERVER\TESTCLIENTENV\PPLIB\PPLIB\X64\RELEASE\TIMER.OBJ
C:\USERS\김한샘\DOCUMENTS\프로젝트 관리 폴더\PROJECTGITLAB\SERVER\TESTCLIENTENV\PPLIB\PPLIB\X64\RELEASE\STREAM.OBJ
C:\USERS\김한샘\DOCUMENTS\프로젝트 관리 폴더\PROJECTGITLAB\SERVER\TESTCLIENTENV\PPLIB\PPLIB\X64\RELEASE\DIRECTIMAGE.OBJ
C:\USERS\김한샘\DOCUMENTS\프로젝트 관리 폴더\PROJECTGITLAB\SERVER\TESTCLIENTENV\PPLIB\PPLIB\X64\RELEASE\DIRECTGRAPHICS.OBJ
C:\USERS\김한샘\DOCUMENTS\프로젝트 관리 폴더\PROJECTGITLAB\SERVER\TESTCLIENTENV\PPLIB\PPLIB\X64\RELEASE\CLOCK.OBJ
C:\USERS\김한샘\DOCUMENTS\프로젝트 관리 폴더\PROJECTGITLAB\SERVER\TESTCLIENTENV\PPLIB\PPLIB\X64\RELEASE\BACKOFFSPINLOCK.OBJ
^C:\USERS\김한샘\DOCUMENTS\프로젝트 관리 폴더\PROJECTGITLAB\SERVER\TESTCLIENTENV\PPLIB\PPLIB\COMMON\BACKOFFSPINLOCK.CPP
C:\USERS\김한샘\DOCUMENTS\프로젝트 관리 폴더\PROJECTGITLAB\SERVER\TESTCLIENTENV\PPLIB\PPLIB\X64\RELEASE\PPLIB.PDB
^C:\USERS\김한샘\DOCUMENTS\프로젝트 관리 폴더\PROJECTGITLAB\SERVER\TESTCLIENTENV\PPLIB\PPLIB\COMMON\CLOCK.CPP
C:\USERS\김한샘\DOCUMENTS\프로젝트 관리 폴더\PROJECTGITLAB\SERVER\TESTCLIENTENV\PPLIB\PPLIB\X64\RELEASE\PPLIB.PDB
^C:\USERS\김한샘\DOCUMENTS\프로젝트 관리 폴더\PROJECTGITLAB\SERVER\TESTCLIENTENV\PPLIB\PPLIB\COMMON\DIRECTGRAPHICS.CPP
C:\USERS\김한샘\DOCUMENTS\프로젝트 관리 폴더\PROJECTGITLAB\SERVER\TESTCLIENTENV\PPLIB\PPLIB\X64\RELEASE\PPLIB.PDB
^C:\USERS\김한샘\DOCUMENTS\프로젝트 관리 폴더\PROJECTGITLAB\SERVER\TESTCLIENTENV\PPLIB\PPLIB\COMMON\DIRECTIMAGE.CPP
C:\USERS\김한샘\DOCUMENTS\프로젝트 관리 폴더\PROJECTGITLAB\SERVER\TESTCLIENTENV\PPLIB\PPLIB\X64\RELEASE\PPLIB.PDB
^C:\USERS\김한샘\DOCUMENTS\프로젝트 관리 폴더\PROJECTGITLAB\SERVER\TESTCLIENTENV\PPLIB\PPLIB\COMMON\STREAM.CPP
C:\USERS\김한샘\DOCUMENTS\프로젝트 관리 폴더\PROJECTGITLAB\SERVER\TESTCLIENTENV\PPLIB\PPLIB\X64\RELEASE\PPLIB.PDB
^C:\USERS\김한샘\DOCUMENTS\프로젝트 관리 폴더\PROJECTGITLAB\SERVER\TESTCLIENTENV\PPLIB\PPLIB\COMMON\TIMER.CPP
C:\USERS\김한샘\DOCUMENTS\프로젝트 관리 폴더\PROJECTGITLAB\SERVER\TESTCLIENTENV\PPLIB\PPLIB\X64\RELEASE\PPLIB.PDB
^C:\USERS\김한샘\DOCUMENTS\프로젝트 관리 폴더\PROJECTGITLAB\SERVER\TESTCLIENTENV\PPLIB\PPLIB\DIRECTTOOLS\PANELTEXTBOARD.CPP
C:\USERS\김한샘\DOCUMENTS\프로젝트 관리 폴더\PROJECTGITLAB\SERVER\TESTCLIENTENV\PPLIB\PPLIB\X64\RELEASE\PPLIB.PDB
^C:\USERS\김한샘\DOCUMENTS\프로젝트 관리 폴더\PROJECTGITLAB\SERVER\TESTCLIENTENV\PPLIB\PPLIB\NETWORK\EVENTSELECTNETWORK.CPP
C:\USERS\김한샘\DOCUMENTS\프로젝트 관리 폴더\PROJECTGITLAB\SERVER\TESTCLIENTENV\PPLIB\PPLIB\X64\RELEASE\PPLIB.PDB
^C:\USERS\김한샘\DOCUMENTS\프로젝트 관리 폴더\PROJECTGITLAB\SERVER\TESTCLIENTENV\PPLIB\PPLIB\NETWORK\PACKETANALYZER.CPP
C:\USERS\김한샘\DOCUMENTS\프로젝트 관리 폴더\PROJECTGITLAB\SERVER\TESTCLIENTENV\PPLIB\PPLIB\X64\RELEASE\PPLIB.PDB
^C:\USERS\김한샘\DOCUMENTS\프로젝트 관리 폴더\PROJECTGITLAB\SERVER\TESTCLIENTENV\PPLIB\PPLIB\NETWORK\PACKETTYPE.CPP
C:\USERS\김한샘\DOCUMENTS\프로젝트 관리 폴더\PROJECTGITLAB\SERVER\TESTCLIENTENV\PPLIB\PPLIB\X64\RELEASE\PPLIB.PDB
^C:\USERS\김한샘\DOCUMENTS\프로젝트 관리 폴더\PROJECTGITLAB\SERVER\TESTCLIENTENV\PPLIB\PPLIB\NETWORK\SESSION.CPP
C:\USERS\김한샘\DOCUMENTS\프로젝트 관리 폴더\PROJECTGITLAB\SERVER\TESTCLIENTENV\PPLIB\PPLIB\X64\RELEASE\PPLIB.PDB
