^C:\Users\김한샘\Documents\프로젝트 관리 폴더\ProjectGitLab\Server\TestClientEnv\PPLib\SimpleMMOClientProject\SimpleMMOClientProject.vcxproj
C:\Users\김한샘\Documents\프로젝트 관리 폴더\ProjectGitLab\Server\TestClientEnv\PPLib\x64\Release\SimpleMMOClientProject.ipdb
C:\Users\김한샘\Documents\프로젝트 관리 폴더\ProjectGitLab\Server\TestClientEnv\PPLib\x64\Release\SimpleMMOClientProject.iobj
^C:\Users\김한샘\Documents\프로젝트 관리 폴더\ProjectGitLab\Server\TestClientEnv\PPLib\SimpleMMOClientProject\SimpleMMOClientProject.vcxproj
C:\Users\김한샘\Documents\프로젝트 관리 폴더\ProjectGitLab\Server\TestClientEnv\PPLib\x64\Release\SimpleMMOClientProject.ipdb
C:\Users\김한샘\Documents\프로젝트 관리 폴더\ProjectGitLab\Server\TestClientEnv\PPLib\x64\Release\SimpleMMOClientProject.iobj
^C:\Users\김한샘\Documents\프로젝트 관리 폴더\ProjectGitLab\Server\TestClientEnv\PPLib\SimpleMMOClientProject\SimpleMMOClientProject.vcxproj
C:\Users\김한샘\Documents\프로젝트 관리 폴더\ProjectGitLab\Server\TestClientEnv\PPLib\x64\Release\SimpleMMOClientProject.ipdb
C:\Users\김한샘\Documents\프로젝트 관리 폴더\ProjectGitLab\Server\TestClientEnv\PPLib\x64\Release\SimpleMMOClientProject.iobj
^C:\Users\김한샘\Documents\프로젝트 관리 폴더\ProjectGitLab\Server\TestClientEnv\PPLib\SimpleMMOClientProject\SimpleMMOClientProject.vcxproj
C:\Users\김한샘\Documents\프로젝트 관리 폴더\ProjectGitLab\Server\TestClientEnv\PPLib\x64\Release\SimpleMMOClientProject.ipdb
C:\Users\김한샘\Documents\프로젝트 관리 폴더\ProjectGitLab\Server\TestClientEnv\PPLib\x64\Release\SimpleMMOClientProject.iobj
^C:\Users\김한샘\Documents\프로젝트 관리 폴더\ProjectGitLab\Server\TestClientEnv\PPLib\SimpleMMOClientProject\SimpleMMOClientProject.vcxproj
C:\Users\김한샘\Documents\프로젝트 관리 폴더\ProjectGitLab\Server\TestClientEnv\PPLib\x64\Release\SimpleMMOClientProject.ipdb
C:\Users\김한샘\Documents\프로젝트 관리 폴더\ProjectGitLab\Server\TestClientEnv\PPLib\x64\Release\SimpleMMOClientProject.iobj
^C:\Users\김한샘\Documents\프로젝트 관리 폴더\ProjectGitLab\Server\TestClientEnv\PPLib\SimpleMMOClientProject\SimpleMMOClientProject.vcxproj
C:\Users\김한샘\Documents\프로젝트 관리 폴더\ProjectGitLab\Server\TestClientEnv\PPLib\x64\Release\SimpleMMOClientProject.ipdb
C:\Users\김한샘\Documents\프로젝트 관리 폴더\ProjectGitLab\Server\TestClientEnv\PPLib\x64\Release\SimpleMMOClientProject.iobj
^C:\Users\김한샘\Documents\프로젝트 관리 폴더\ProjectGitLab\Server\TestClientEnv\PPLib\SimpleMMOClientProject\SimpleMMOClientProject.vcxproj
C:\Users\김한샘\Documents\프로젝트 관리 폴더\ProjectGitLab\Server\TestClientEnv\PPLib\x64\Release\SimpleMMOClientProject.ipdb
C:\Users\김한샘\Documents\프로젝트 관리 폴더\ProjectGitLab\Server\TestClientEnv\PPLib\x64\Release\SimpleMMOClientProject.iobj
^C:\Users\김한샘\Documents\프로젝트 관리 폴더\ProjectGitLab\Server\TestClientEnv\PPLib\SimpleMMOClientProject\SimpleMMOClientProject.vcxproj
C:\Users\김한샘\Documents\프로젝트 관리 폴더\ProjectGitLab\Server\TestClientEnv\PPLib\x64\Release\SimpleMMOClientProject.ipdb
C:\Users\김한샘\Documents\프로젝트 관리 폴더\ProjectGitLab\Server\TestClientEnv\PPLib\x64\Release\SimpleMMOClientProject.iobj
^C:\Users\김한샘\Documents\프로젝트 관리 폴더\ProjectGitLab\Server\TestClientEnv\PPLib\SimpleMMOClientProject\SimpleMMOClientProject.vcxproj
C:\Users\김한샘\Documents\프로젝트 관리 폴더\ProjectGitLab\Server\TestClientEnv\PPLib\x64\Release\SimpleMMOClientProject.ipdb
C:\Users\김한샘\Documents\프로젝트 관리 폴더\ProjectGitLab\Server\TestClientEnv\PPLib\x64\Release\SimpleMMOClientProject.iobj
^C:\Users\김한샘\Documents\프로젝트 관리 폴더\ProjectGitLab\Server\TestClientEnv\PPLib\SimpleMMOClientProject\SimpleMMOClientProject.vcxproj
C:\Users\김한샘\Documents\프로젝트 관리 폴더\ProjectGitLab\Server\TestClientEnv\PPLib\x64\Release\SimpleMMOClientProject.ipdb
C:\Users\김한샘\Documents\프로젝트 관리 폴더\ProjectGitLab\Server\TestClientEnv\PPLib\x64\Release\SimpleMMOClientProject.iobj
^C:\Users\김한샘\Documents\프로젝트 관리 폴더\ProjectGitLab\Server\TestClientEnv\PPLib\SimpleMMOClientProject\SimpleMMOClientProject.vcxproj
C:\Users\김한샘\Documents\프로젝트 관리 폴더\ProjectGitLab\Server\TestClientEnv\PPLib\x64\Release\SimpleMMOClientProject.ipdb
C:\Users\김한샘\Documents\프로젝트 관리 폴더\ProjectGitLab\Server\TestClientEnv\PPLib\x64\Release\SimpleMMOClientProject.iobj
^C:\Users\김한샘\Documents\프로젝트 관리 폴더\ProjectGitLab\Server\TestClientEnv\PPLib\SimpleMMOClientProject\SimpleMMOClientProject.vcxproj
C:\Users\김한샘\Documents\프로젝트 관리 폴더\ProjectGitLab\Server\TestClientEnv\PPLib\x64\Release\SimpleMMOClientProject.ipdb
C:\Users\김한샘\Documents\프로젝트 관리 폴더\ProjectGitLab\Server\TestClientEnv\PPLib\x64\Release\SimpleMMOClientProject.iobj
^C:\Users\김한샘\Documents\프로젝트 관리 폴더\ProjectGitLab\Server\TestClientEnv\PPLib\SimpleMMOClientProject\SimpleMMOClientProject.vcxproj
C:\Users\김한샘\Documents\프로젝트 관리 폴더\ProjectGitLab\Server\TestClientEnv\PPLib\x64\Release\SimpleMMOClientProject.ipdb
C:\Users\김한샘\Documents\프로젝트 관리 폴더\ProjectGitLab\Server\TestClientEnv\PPLib\x64\Release\SimpleMMOClientProject.iobj
^C:\Users\김한샘\Documents\프로젝트 관리 폴더\ProjectGitLab\Server\TestClientEnv\PPLib\SimpleMMOClientProject\SimpleMMOClientProject.vcxproj
C:\Users\김한샘\Documents\프로젝트 관리 폴더\ProjectGitLab\Server\TestClientEnv\PPLib\x64\Release\SimpleMMOClientProject.ipdb
C:\Users\김한샘\Documents\프로젝트 관리 폴더\ProjectGitLab\Server\TestClientEnv\PPLib\x64\Release\SimpleMMOClientProject.iobj
^C:\Users\김한샘\Documents\프로젝트 관리 폴더\ProjectGitLab\Server\TestClientEnv\PPLib\SimpleMMOClientProject\SimpleMMOClientProject.vcxproj
C:\Users\김한샘\Documents\프로젝트 관리 폴더\ProjectGitLab\Server\TestClientEnv\PPLib\x64\Release\SimpleMMOClientProject.ipdb
C:\Users\김한샘\Documents\프로젝트 관리 폴더\ProjectGitLab\Server\TestClientEnv\PPLib\x64\Release\SimpleMMOClientProject.iobj
^C:\Users\김한샘\Documents\프로젝트 관리 폴더\ProjectGitLab\Server\TestClientEnv\PPLib\SimpleMMOClientProject\SimpleMMOClientProject.vcxproj
C:\Users\김한샘\Documents\프로젝트 관리 폴더\ProjectGitLab\Server\TestClientEnv\PPLib\x64\Release\SimpleMMOClientProject.ipdb
C:\Users\김한샘\Documents\프로젝트 관리 폴더\ProjectGitLab\Server\TestClientEnv\PPLib\x64\Release\SimpleMMOClientProject.iobj
^C:\Users\김한샘\Documents\프로젝트 관리 폴더\ProjectGitLab\Server\TestClientEnv\PPLib\SimpleMMOClientProject\SimpleMMOClientProject.vcxproj
C:\Users\김한샘\Documents\프로젝트 관리 폴더\ProjectGitLab\Server\TestClientEnv\PPLib\x64\Release\SimpleMMOClientProject.ipdb
C:\Users\김한샘\Documents\프로젝트 관리 폴더\ProjectGitLab\Server\TestClientEnv\PPLib\x64\Release\SimpleMMOClientProject.iobj
